<?xml version="1.0" encoding="utf-8"?>
<!-- Generator: Adobe Illustrator 16.0.0, SVG Export Plug-In . SVG Version: 6.00 Build 0)  -->
<!DOCTYPE svg
  PUBLIC '-//W3C//DTD SVG 1.1//EN'
  'http://www.w3.org/Graphics/SVG/1.1/DTD/svg11.dtd'>
<svg role="img" aria-label="NLM Logo" enable-background="new 0 0 100 100" height="100px" preserveAspectRatio="xMinYMin meet" version="1.1" viewBox="0 0 100 100" width="100px" x="0px" xml:space="preserve" xmlns="http://www.w3.org/2000/svg" xmlns:xlink="http://www.w3.org/1999/xlink" y="0px">
	<title>NLM Logo</title>
  <desc>The logo for the National Library of Medicine</desc>
	<a target="_top" xlink:href="http://www.nlm.nih.gov/" xlink:show="replace" xlink:title="National Library of Medicine Home Page">
		<g id="Logo_image">
			<g>
				<g>
					<path d="M100.176,0.344c0,33.018-0.002,66.036,0.017,99.053c0,0.646-0.148,0.791-0.808,0.791     c-33.011-0.019-66.022-0.017-99.033-0.017c-0.004-0.057-0.01-0.114-0.01-0.172c-0.001-32.955,0-65.91-0.021-98.865     c0-0.752,0.312-0.814,0.93-0.813c8.405,0.014,16.811,0.01,25.216,0.008c0.32,0,0.641-0.023,0.962-0.036     c0.278,0.05,0.441,0.267,0.637,0.432c7.199,6.072,14.4,12.142,21.587,18.228c0.38,0.322,0.57,0.271,0.921-0.027     c6.303-5.336,12.612-10.665,18.938-15.974c1.081-0.908,2.073-1.927,3.303-2.659c0.319,0.013,0.639,0.036,0.959,0.037     C82.574,0.335,91.375,0.34,100.176,0.344z M60.992,13.432c-0.205-0.07-0.338,0.03-0.446,0.186     c-1.417,0.721-2.806,1.489-4.111,2.394c-0.381,0.237-0.763,0.473-1.144,0.709c-1.477,0.857-2.975,1.68-4.417,2.589     c-0.57,0.36-0.946,0.351-1.533,0.009c-3.03-1.764-5.881-3.824-9.093-5.287c0.025-0.262-0.198-0.325-0.364-0.426     c-4.625-2.794-9.253-5.585-13.877-8.381c-0.255-0.154-0.506-0.267-0.815-0.264c-2.28,0.018-4.561,0.028-6.842,0.041     c-0.702-0.115-1.406-0.152-2.114-0.046c-3.008,0.002-6.016,0.005-9.023,0.007c-2.383,0.001-2.383,0-2.274,2.36     c0,0.25,0.001,0.499,0.002,0.748c0,2.077-0.001,4.154-0.001,6.231c-0.002,0.234-0.003,0.469-0.005,0.704     c0.004,2.148,0.007,4.296,0.011,6.444c-0.003,0.245-0.006,0.49-0.009,0.735c-0.001,2.061-0.002,4.122-0.002,6.183     c0.001,0.239,0.001,0.477,0.002,0.716c-0.001,2.286-0.001,4.572-0.002,6.858c-0.001,0.244-0.003,0.488-0.005,0.732     c-0.005,1.804-0.013,3.607-0.016,5.411c-0.003,1.839,0,1.839,1.941,1.749c0.458-0.003,0.915-0.006,1.372-0.01     c3.581,0.004,7.161,0.009,10.741,0.013c0.355-0.003,0.71-0.006,1.066-0.009c2.523,0,5.045-0.001,7.568-0.002     c0.314,0.003,0.628,0.006,0.941,0.009c1.622-0.003,3.244-0.007,4.867-0.011c0.286,0.001,0.572,0.002,0.857,0.004     c1.57,0.004,3.14,0.008,4.709,0.012c0.246-0.006,0.491-0.011,0.737-0.017c1.232,0,2.464,0.001,3.696,0.001     c0.237,0.002,0.475,0.005,0.711,0.008c1.266,0.003,2.531,0.006,3.796,0.01c0.218-0.001,0.437-0.002,0.655-0.003     c1.085-0.002,2.169-0.004,3.254-0.006c0.232-0.002,0.464-0.005,0.695-0.007c1.136,0,2.271,0,3.405,0     c0.243,0.005,0.485,0.01,0.728,0.016c1.27-0.006,2.539-0.012,3.808-0.018c0.271,0.001,0.543,0.003,0.814,0.004     c1.414,0.001,2.828,0.003,4.243,0.004c0.267,0.002,0.534,0.005,0.801,0.008c1.737-0.005,3.474-0.01,5.21-0.015     c0.314,0.004,0.629,0.009,0.942,0.013c2.315-0.002,4.63-0.004,6.945-0.006c0.355,0,0.711,0,1.065,0c3.631,0,7.261,0,10.891-0.001     c0.458,0,0.917,0,1.375,0c0.642,0.009,1.283,0.001,1.924,0.032c0.512,0.024,0.741-0.145,0.733-0.681     c-0.028-1.999-0.025-3.998-0.034-5.997c-0.001-0.239-0.002-0.478-0.002-0.717c-0.001-2.289-0.003-4.577-0.004-6.865     c0.002-0.232,0.004-0.464,0.005-0.696c0.001-2.282,0.002-4.563,0.002-6.845c-0.003-0.231-0.006-0.463-0.009-0.694     c-0.001-2.081-0.003-4.162-0.004-6.242c0.004-0.229,0.008-0.458,0.012-0.686c-0.001-2.123-0.002-4.245-0.003-6.368     c0.002-0.233,0.004-0.465,0.006-0.698c0.008-0.57-0.016-1.142,0.031-1.708c0.05-0.589-0.218-0.72-0.765-0.712     c-1.863,0.025-3.727,0.025-5.589,0.005c-1.744-0.019-3.49,0.087-5.232-0.067c-0.682,0.035-1.363,0.07-2.045,0.105     c-2.05-0.011-4.099-0.008-6.147-0.043c-0.554-0.01-1.024,0.124-1.488,0.403c-4.087,2.461-8.182,4.911-12.266,7.377     c-0.21,0.126-0.618,0.132-0.519,0.556l-0.01-0.022c-0.195-0.1-0.312-0.039-0.358,0.168L60.992,13.432z M50.083,95.524     c14.761,0,29.521-0.008,44.281,0.02c0.862,0.002,1.062-0.229,1.055-1.05c-0.042-4.474-0.042-8.948-0.001-13.423     c0.008-0.811-0.176-1.062-1.048-1.058c-7.028,0.038-14.058,0.021-21.086,0.021c-22.434,0-44.867,0.006-67.301-0.022     c-0.917-0.002-1.099,0.252-1.091,1.096c0.043,4.416,0.017,8.834,0.022,13.251c0.002,1.319-0.149,1.162,1.15,1.162     C20.738,95.525,35.41,95.524,50.083,95.524z M50.111,61.281c14.76,0,29.52-0.006,44.28,0.017     c0.791,0.001,1.035-0.183,1.027-0.988c-0.041-4.589-0.035-9.178-0.005-13.767c0.005-0.727-0.235-0.914-0.952-0.914     c-29.549,0.015-59.097,0.016-88.646-0.002c-0.748,0-0.922,0.22-0.918,0.921c0.031,4.561,0.044,9.121-0.008,13.681     c-0.01,0.892,0.25,1.073,1.118,1.072C20.708,61.273,35.41,61.281,50.111,61.281z M50.126,78.484     c14.759,0,29.518-0.007,44.276,0.018c0.81,0.002,1.021-0.208,1.015-0.996c-0.038-4.56-0.033-9.12-0.004-13.68     c0.005-0.73-0.168-0.99-0.97-0.989c-29.547,0.02-59.094,0.02-88.641,0c-0.765,0-0.908,0.252-0.904,0.936     c0.028,4.53,0.015,9.062,0.015,13.594c0,1.117,0,1.118,1.112,1.118C20.725,78.484,35.426,78.484,50.126,78.484z" fill="#020203"/>
					<path clip-rule="evenodd" d="M53.81,15.089c-0.008,0.01-0.017,0.02-0.024,0.03" fill="#EFF0F4" fill-rule="evenodd"/>
					<path clip-rule="evenodd" d="M29.833,1.954" fill="#EFF0F4" fill-rule="evenodd"/>
					<path clip-rule="evenodd" d="M27.592,0.172c-0.054,0.041-0.107,0.081-0.163,0.122     c-0.323,0.012-0.644,0.036-0.964,0.036C18.061,0.331,9.655,0.335,1.25,0.321C0.633,0.32,0.32,0.383,0.32,1.135     C0.341,34.09,0.34,67.045,0.341,100c0,0.058,0.006,0.115,0.01,0.172c-0.054-0.037-0.184,0.087-0.178-0.086     c0.008-0.229,0.002-0.459,0.002-0.688c0-32.817,0.002-65.634-0.017-98.451c0-0.646,0.148-0.793,0.808-0.792     C9.842,0.18,18.717,0.172,27.592,0.172z" fill="#22407A" fill-rule="evenodd"/>
					<path clip-rule="evenodd" d="M72.814,0.292c-0.077-0.04-0.154-0.08-0.23-0.121     c8.963,0,17.926-0.001,26.889,0.011c0.229,0,0.545-0.194,0.703,0.162C91.375,0.34,82.574,0.335,73.773,0.329     C73.453,0.329,73.134,0.305,72.814,0.292z" fill="#22407A" fill-rule="evenodd"/>
					<path clip-rule="evenodd" d="M50.083,95.524c-14.673,0-29.345,0.001-44.018-0.003     c-1.299,0-1.148,0.157-1.15-1.162c-0.006-4.417,0.021-8.835-0.022-13.251c-0.008-0.844,0.174-1.098,1.091-1.096     c22.434,0.028,44.867,0.022,67.301,0.022c7.028,0,14.058,0.017,21.086-0.021c0.872-0.004,1.056,0.247,1.048,1.058     c-0.041,4.475-0.041,8.949,0.001,13.423c0.008,0.82-0.192,1.052-1.055,1.05C79.604,95.517,64.844,95.524,50.083,95.524z      M21.104,84.203c0.059,0.019,0.119,0.037,0.178,0.057c0,2.523-0.014,5.047,0.009,7.57c0.006,0.669-0.036,1.213-0.912,1.219     c-0.214,0.002-0.408,0.081-0.375,0.358c0.037,0.317,0.294,0.222,0.474,0.223c1.113,0.009,2.226,0.007,3.339,0.002     c0.186-0.001,0.424,0.072,0.44-0.255c0.015-0.303-0.204-0.332-0.399-0.331c-0.852,0.004-0.978-0.509-0.974-1.194     c0.016-2.753,0.015-5.507,0.001-8.26c-0.003-0.669,0.166-1.134,0.963-1.107c0.211,0.007,0.411,0.01,0.409-0.296     c-0.002-0.3-0.196-0.301-0.411-0.301c-0.586,0.001-1.177,0.046-1.756-0.014c-0.598-0.062-0.875,0.177-1.113,0.689     c-1.279,2.758-2.591,5.501-3.901,8.245c-0.128,0.269-0.163,0.604-0.507,0.785c-1.489-3.021-2.969-6.033-4.462-9.039     c-0.142-0.284-0.192-0.684-0.681-0.671c-0.703,0.017-1.406,0.006-2.109,0.004c-0.23-0.001-0.402,0.045-0.387,0.327     c0.013,0.238,0.171,0.275,0.358,0.267c0.872-0.042,0.975,0.489,0.97,1.172c-0.016,2.725-0.012,5.45-0.003,8.175     c0.002,0.647-0.028,1.227-0.923,1.217c-0.195-0.002-0.419,0.044-0.402,0.336c0.018,0.32,0.261,0.249,0.449,0.251     c0.849,0.006,1.699,0.008,2.548-0.002c0.182-0.002,0.444,0.09,0.482-0.216c0.042-0.337-0.239-0.374-0.461-0.377     c-0.722-0.01-0.849-0.443-0.847-1.027c0.003-1.377-0.019-2.753-0.023-4.129c-0.005-1.292-0.001-2.584-0.001-3.877     c0.21,0.14,0.286,0.287,0.359,0.437c1.428,2.91,2.853,5.822,4.288,8.729c0.119,0.241,0.172,0.567,0.564,0.577     c0.404,0.009,0.447-0.323,0.564-0.563c0.428-0.876,0.835-1.763,1.252-2.644C19.103,88.427,20.104,86.315,21.104,84.203z      M35.165,87.78c0,1.376-0.025,2.752,0.011,4.127c0.018,0.667-0.095,1.127-0.906,1.136c-0.194,0.002-0.513-0.04-0.503,0.325     c0.011,0.389,0.323,0.26,0.519,0.26c1.873,0.005,3.75,0.064,5.618-0.029c2.026-0.102,3.927-0.671,4.979-2.546     c1.166-2.077,1.213-4.274,0.165-6.429c-0.669-1.376-1.842-2.224-3.362-2.507c-2.492-0.464-5.02-0.147-7.531-0.227     c-0.219-0.007-0.41,0.031-0.391,0.322c0.021,0.306,0.252,0.274,0.448,0.27c0.777-0.021,0.985,0.377,0.965,1.084     C35.137,84.97,35.166,86.375,35.165,87.78z M79.043,91.688c-0.277-0.349-0.386-0.479-0.487-0.614     c-2.103-2.822-4.201-5.647-6.313-8.462c-0.213-0.282-0.332-0.711-0.798-0.719c-0.79-0.013-1.581-0.006-2.371-0.002     c-0.189,0.001-0.341,0.054-0.336,0.291c0.005,0.223,0.127,0.31,0.33,0.297c0.972-0.062,1.064,0.535,1.06,1.277     c-0.018,2.695-0.018,5.391,0,8.086c0.005,0.688-0.125,1.194-0.971,1.205c-0.186,0.002-0.424,0.013-0.42,0.317     c0.005,0.323,0.243,0.265,0.432,0.266c0.878,0.007,1.757,0.008,2.635,0c0.183-0.002,0.436,0.086,0.463-0.235     c0.023-0.284-0.183-0.348-0.389-0.349c-0.958-0.005-0.931-0.67-0.932-1.312c-0.003-2.609-0.002-5.219,0.003-7.827     c0-0.124-0.061-0.292,0.16-0.362c0.067,0.079,0.141,0.16,0.206,0.246c2.401,3.176,4.81,6.348,7.192,9.537     c0.31,0.414,0.672,0.555,1.121,0.441c0.506-0.127,0.265-0.578,0.267-0.873c0.02-3.097,0.021-6.193,0.006-9.289     c-0.003-0.654,0.105-1.155,0.926-1.123c0.245,0.01,0.389-0.062,0.37-0.334c-0.021-0.311-0.253-0.261-0.446-0.262     c-0.879-0.005-1.757-0.005-2.635,0c-0.191,0.001-0.432-0.055-0.467,0.246c-0.04,0.351,0.205,0.349,0.45,0.35     c0.599,0.002,0.94,0.282,0.941,0.883C79.045,86.054,79.043,88.738,79.043,91.688z M85.676,93.635c1.199,0,2.399-0.001,3.599,0     c0.292,0.001,0.595,0.049,0.674-0.356c0.12-0.617,0.268-1.229,0.388-1.846c0.027-0.144,0.144-0.37-0.137-0.401     c-0.21-0.024-0.483-0.129-0.58,0.198c-0.065,0.22-0.127,0.44-0.188,0.661c-0.192,0.689-0.587,1.065-1.383,1.023     c-0.934-0.05-1.873-0.034-2.808-0.004c-0.535,0.017-0.738-0.188-0.727-0.699c0.019-0.859,0.004-1.72,0.004-2.579     c0-1.695,0-1.695,1.713-1.695c1.237-0.001,1.25-0.002,1.416,1.205c0.039,0.28,0.107,0.406,0.413,0.403     c0.279-0.003,0.345-0.132,0.344-0.369c-0.004-1.088-0.004-2.177,0-3.266c0.001-0.229-0.044-0.375-0.331-0.376     c-0.285-0.001-0.425,0.066-0.421,0.38c0.015,1.447-0.483,1.224-1.428,1.233c-0.381,0.004-0.762-0.018-1.141,0.005     c-0.39,0.023-0.586-0.064-0.575-0.511c0.029-1.116,0.024-2.234,0.005-3.352c-0.009-0.534,0.24-0.695,0.751-0.678     c0.76,0.026,1.524,0.049,2.281-0.005c0.791-0.055,1.205,0.291,1.381,1.003c0.041,0.166,0.128,0.326,0.144,0.494     c0.033,0.348,0.24,0.42,0.542,0.387c0.408-0.045,0.238-0.322,0.202-0.519c-0.099-0.534-0.262-1.061-0.319-1.598     c-0.047-0.43-0.262-0.495-0.634-0.493c-2.253,0.01-4.506,0.002-6.759,0.01c-0.206,0.001-0.506-0.097-0.533,0.266     c-0.026,0.356,0.244,0.325,0.476,0.329c0.682,0.01,0.905,0.406,0.904,1.007c-0.002,2.837,0.001,5.674-0.002,8.51     c0,0.57-0.148,1.017-0.87,1.03c-0.193,0.004-0.519-0.034-0.505,0.324c0.018,0.443,0.38,0.266,0.593,0.269     C83.335,93.644,84.506,93.635,85.676,93.635z M28.689,93.635c1.2,0,2.4-0.003,3.6,0.001c0.327,0.002,0.648,0.041,0.729-0.405     c0.107-0.591,0.254-1.174,0.367-1.764c0.034-0.176,0.138-0.422-0.202-0.448c-0.238-0.019-0.471-0.031-0.532,0.289     c-0.037,0.195-0.12,0.383-0.169,0.576c-0.191,0.75-0.645,1.081-1.462,1.031c-0.904-0.056-1.814-0.034-2.721-0.005     c-0.533,0.018-0.74-0.185-0.728-0.699c0.021-0.859,0.005-1.72,0.005-2.58c0-1.694,0-1.694,1.713-1.694     c1.225,0,1.238-0.002,1.416,1.21c0.041,0.283,0.116,0.401,0.418,0.398c0.283-0.004,0.34-0.141,0.339-0.373     c-0.004-1.09-0.004-2.179,0-3.268c0.001-0.234-0.055-0.369-0.338-0.37c-0.291-0.002-0.413,0.08-0.416,0.386     c-0.011,1.166-0.102,1.241-1.437,1.229c-0.38-0.004-0.762-0.021-1.141,0.005c-0.404,0.027-0.573-0.091-0.563-0.522     c0.027-1.117,0.019-2.235,0.004-3.353c-0.006-0.471,0.178-0.678,0.673-0.665c0.79,0.021,1.583,0.048,2.37-0.006     c0.798-0.055,1.196,0.31,1.37,1.016c0.048,0.194,0.131,0.382,0.164,0.577c0.055,0.334,0.302,0.303,0.534,0.288     c0.348-0.021,0.228-0.269,0.195-0.447c-0.109-0.59-0.256-1.175-0.345-1.768c-0.044-0.295-0.18-0.387-0.455-0.386     c-2.341,0.002-4.683,0-7.024,0.003c-0.199,0-0.426-0.022-0.429,0.287c-0.003,0.294,0.196,0.312,0.411,0.307     c0.797-0.02,0.974,0.465,0.973,1.118c-0.004,2.78-0.002,5.561-0.002,8.341c0,0.605-0.145,1.081-0.909,1.095     c-0.207,0.003-0.509,0.004-0.468,0.359c0.043,0.377,0.355,0.227,0.548,0.229C26.347,93.643,27.518,93.635,28.689,93.635z      M53.6,87.667c0-0.143-0.005-0.286,0-0.43c0.132-3.311,2.384-5.19,5.739-4.807c1.042,0.118,1.729,0.622,2.003,1.629     c0.067,0.248,0.134,0.497,0.202,0.745c0.074,0.271,0.29,0.239,0.494,0.21c0.259-0.038,0.283-0.177,0.265-0.427     c-0.176-2.356-0.37-2.563-2.815-2.873c-0.087-0.011-0.172-0.037-0.259-0.042c-2.408-0.139-4.679,0.212-6.169,2.294     c-1.542,2.153-1.506,4.544-0.475,6.87c0.938,2.112,2.808,2.927,5.083,3.05c2.043,0.109,4.179-1.023,5.062-2.782     c0.112-0.223,0.293-0.429-0.112-0.61c-0.342-0.153-0.468-0.034-0.601,0.231c-0.076,0.153-0.183,0.293-0.283,0.434     c-1.918,2.703-5.753,2.523-7.388-0.353C53.793,89.835,53.586,88.772,53.6,87.667z M47.995,87.764c0,1.347-0.044,2.695,0.017,4.04     c0.036,0.809-0.169,1.263-1.075,1.246c-0.185-0.004-0.524-0.062-0.513,0.307c0.014,0.443,0.378,0.267,0.591,0.27     c1.229,0.018,2.458,0.015,3.687,0.002c0.198-0.002,0.513,0.134,0.546-0.236c0.031-0.352-0.279-0.348-0.486-0.341     c-1.015,0.029-1.179-0.549-1.169-1.384c0.029-2.636,0.027-5.272,0-7.908c-0.008-0.833,0.239-1.332,1.181-1.277     c0.236,0.014,0.499,0.015,0.474-0.334c-0.022-0.295-0.266-0.257-0.46-0.258c-1.288-0.005-2.575-0.006-3.862,0.002     c-0.213,0.001-0.508-0.075-0.503,0.296c0.004,0.363,0.291,0.299,0.508,0.294c0.823-0.021,1.118,0.342,1.083,1.156     C47.951,85.011,47.995,86.389,47.995,87.764z M65.936,93.635c0.585,0,1.171,0.023,1.753-0.012     c0.233-0.014,0.645,0.227,0.669-0.27c0.021-0.427-0.389-0.32-0.583-0.317c-0.897,0.014-1.027-0.475-1.019-1.217     c0.031-2.69,0.042-5.382-0.005-8.072c-0.016-0.862,0.228-1.316,1.159-1.264c0.237,0.013,0.482,0.029,0.457-0.331     c-0.023-0.31-0.252-0.262-0.445-0.263c-1.286-0.004-2.572-0.003-3.858-0.001c-0.229,0-0.49-0.035-0.476,0.323     c0.012,0.309,0.243,0.28,0.439,0.269c0.966-0.056,1.154,0.476,1.145,1.296c-0.031,2.634-0.034,5.268,0.002,7.9     c0.012,0.841-0.133,1.42-1.156,1.38c-0.185-0.008-0.434-0.008-0.43,0.298c0.006,0.383,0.303,0.271,0.507,0.275     C64.708,93.643,65.322,93.635,65.936,93.635z" fill="#22407A" fill-rule="evenodd"/>
					<path clip-rule="evenodd" d="M50.111,61.281c-14.701,0-29.402-0.008-44.104,0.02     c-0.869,0.001-1.128-0.181-1.118-1.072c0.052-4.56,0.039-9.12,0.008-13.681c-0.004-0.701,0.17-0.921,0.918-0.921     c29.549,0.019,59.097,0.018,88.646,0.002c0.717,0,0.957,0.187,0.952,0.914c-0.03,4.589-0.036,9.178,0.005,13.767     c0.008,0.806-0.236,0.989-1.027,0.988C79.631,61.275,64.871,61.281,50.111,61.281z M85.773,59.323c1.288,0,2.576,0,3.864,0     c2.32,0,2.319,0,2.684-2.278c0.029-0.187,0.195-0.41-0.156-0.444c-0.221-0.021-0.484-0.085-0.581,0.226     c-0.059,0.191-0.127,0.382-0.166,0.577c-0.169,0.83-0.63,1.215-1.539,1.146c-0.873-0.066-1.757-0.042-2.634-0.005     c-0.578,0.024-0.782-0.2-0.779-0.746c0.012-2.867,0.006-5.734,0.004-8.602c0-0.614,0.148-1.085,0.925-1.052     c0.238,0.01,0.486-0.03,0.454-0.371c-0.028-0.307-0.272-0.25-0.462-0.251c-1.112-0.006-2.226-0.004-3.338-0.002     c-0.23,0-0.503-0.039-0.496,0.313c0.006,0.273,0.228,0.321,0.434,0.315c0.838-0.022,0.92,0.504,0.918,1.139     c-0.009,2.695,0,5.391-0.004,8.086c-0.002,1.197-0.521,1.586-1.703,1.312c-0.621-0.144-0.762-0.665-0.953-1.134     c-1.296-3.184-2.578-6.372-3.875-9.555c-0.13-0.319-0.151-0.723-0.708-0.722c-0.555,0-0.57,0.383-0.69,0.715     c-1.164,3.231-2.329,6.462-3.487,9.695c-0.157,0.441-0.293,0.894-0.845,0.992c-0.232,0.041-0.276,0.162-0.266,0.354     c0.016,0.291,0.23,0.288,0.439,0.289c0.644,0.002,1.288,0.005,1.933-0.001c0.192-0.002,0.427,0.053,0.473-0.244     c0.047-0.306-0.095-0.39-0.392-0.398c-0.406-0.012-0.59-0.268-0.479-0.641c0.235-0.794,0.339-1.704,0.824-2.319     c0.315-0.4,1.219-0.085,1.857-0.12c0.175-0.01,0.352-0.002,0.527-0.002c2.376,0,2.376,0,3.092,2.169     c0.026,0.081,0.024,0.174,0.059,0.251c0.164,0.357-0.019,0.537-0.339,0.645c-0.234,0.078-0.677-0.1-0.567,0.4     c0.092,0.418,0.473,0.252,0.729,0.254C82.277,59.33,84.025,59.323,85.773,59.323z M70.07,56.99     c-0.067,0.021-0.135,0.042-0.202,0.062c-0.155-0.193-0.317-0.383-0.466-0.582c-1.794-2.403-3.681-4.749-5.341-7.239     c-0.91-1.366-1.927-2.022-3.558-1.714c-0.085,0.016-0.176-0.002-0.264,0.003c-0.218,0.014-0.493-0.07-0.486,0.307     c0.006,0.285,0.198,0.331,0.411,0.318c0.872-0.053,0.999,0.472,0.996,1.157c-0.011,2.723-0.01,5.447,0,8.17     c0.002,0.711-0.119,1.277-1.039,1.22c-0.185-0.012-0.348,0.024-0.352,0.269c-0.004,0.257,0.126,0.36,0.373,0.36     c0.937,0,1.873-0.002,2.811,0.004c0.206,0.001,0.337-0.068,0.351-0.283c0.012-0.181,0.003-0.37-0.253-0.348     c-1.072,0.093-1.07-0.627-1.07-1.345c-0.001-2.552-0.003-5.104,0.004-7.655c0.001-0.149-0.089-0.349,0.184-0.464     c0.187,0.235,0.382,0.475,0.567,0.72c2.28,3.015,4.571,6.021,6.824,9.054c0.328,0.442,0.709,0.487,1.135,0.394     c0.471-0.104,0.234-0.529,0.236-0.799c0.019-3.124,0.016-6.249,0.009-9.374c-0.002-0.596,0.051-1.109,0.861-1.07     c0.26,0.012,0.461-0.073,0.428-0.394c-0.032-0.32-0.281-0.235-0.464-0.237c-0.849-0.009-1.698-0.01-2.547,0     c-0.209,0.002-0.504-0.108-0.534,0.258c-0.034,0.406,0.289,0.38,0.534,0.377c0.547-0.009,0.843,0.251,0.846,0.763     C70.076,51.611,70.07,54.301,70.07,56.99z M46.892,53.415c-0.01,1.461,0.253,2.854,1.171,4.052     c1.773,2.312,6.291,2.812,8.863,1.002c1.688-1.188,2.181-2.94,2.218-4.815c0.044-2.199-0.445-4.286-2.583-5.476     c-2.264-1.26-4.67-1.268-6.958-0.077C47.475,49.208,46.918,51.214,46.892,53.415z M18.236,57.337     c-0.332-0.408-0.512-0.614-0.675-0.832c-1.794-2.403-3.59-4.806-5.377-7.214c-1.366-1.841-1.361-1.844-3.674-1.771     c-0.029,0.001-0.059-0.003-0.087,0.001c-0.207,0.028-0.495-0.097-0.513,0.28c-0.016,0.351,0.244,0.359,0.471,0.35     c0.791-0.033,0.897,0.447,0.896,1.062c-0.008,2.78-0.011,5.561,0.002,8.341c0.003,0.697-0.148,1.206-1.012,1.137     c-0.252-0.021-0.38,0.067-0.36,0.338c0.017,0.221,0.138,0.293,0.339,0.293c0.937,0,1.873,0,2.81,0.002     c0.231,0.001,0.395-0.058,0.406-0.329c0.013-0.3-0.178-0.313-0.398-0.304c-0.831,0.038-0.935-0.479-0.932-1.124     c0.01-2.608,0.003-5.217,0.009-7.825c0-0.156-0.072-0.339,0.16-0.522c0.151,0.193,0.305,0.384,0.453,0.579     c2.278,3.015,4.564,6.024,6.823,9.053c0.308,0.413,0.631,0.703,1.146,0.556c0.571-0.162,0.285-0.67,0.288-1.008     c0.024-2.952,0.007-5.904,0.019-8.856c0.003-0.682-0.064-1.456,1.026-1.399c0.267,0.014,0.349-0.155,0.329-0.393     c-0.021-0.255-0.219-0.227-0.387-0.227c-0.907-0.004-1.814-0.003-2.722-0.001c-0.204,0-0.422-0.02-0.435,0.279     c-0.012,0.275,0.17,0.361,0.39,0.348c0.96-0.055,0.996,0.6,1.002,1.253c0.013,1.347,0.004,2.694,0.004,4.042     C18.236,54.659,18.236,55.877,18.236,57.337z M25.563,55.597c2.495,0,2.493,0,3.19,2.133c0.157,0.481,0.272,0.935-0.489,0.96     c-0.217,0.007-0.312,0.101-0.303,0.317c0.009,0.217,0.128,0.309,0.33,0.31c0.995,0.003,1.99,0.003,2.985,0.001     c0.198,0,0.336-0.077,0.337-0.3c0-0.146,0.001-0.289-0.195-0.319c-0.714-0.111-0.856-0.702-1.07-1.229     c-1.279-3.158-2.552-6.319-3.84-9.474c-0.129-0.315-0.156-0.725-0.714-0.72c-0.555,0.005-0.564,0.381-0.686,0.72     c-1.153,3.203-2.309,6.405-3.463,9.608c-0.175,0.485-0.291,1.016-0.956,1.087c-0.177,0.019-0.247,0.128-0.24,0.293     c0.008,0.198,0.105,0.33,0.316,0.332c0.761,0.005,1.522,0.002,2.283,0.003c0.208,0,0.324-0.085,0.326-0.304     c0.002-0.195-0.04-0.328-0.283-0.328c-0.747,0-0.673-0.462-0.543-0.948c0.573-2.143,0.574-2.143,2.838-2.143     C25.446,55.597,25.505,55.597,25.563,55.597z M37.126,53.312c0-1.318,0.063-2.64-0.022-3.953     c-0.058-0.884,0.222-1.108,1.104-1.073c1.768,0.07,1.786,0.013,2.383,1.669c0.113,0.313,0.287,0.319,0.519,0.298     c0.344-0.032,0.203-0.295,0.187-0.463c-0.05-0.512-0.151-1.02-0.188-1.532c-0.04-0.55-0.252-0.765-0.866-0.755     c-2.457,0.039-4.917,0.067-7.371-0.011c-0.935-0.03-1.339,0.207-1.313,1.131c0.011,0.366-0.106,0.734-0.143,1.104     c-0.019,0.191-0.242,0.466,0.172,0.529c0.32,0.049,0.495-0.082,0.545-0.397c0.254-1.595,0.346-1.538,2.105-1.552     c0.263-0.002,0.528,0.02,0.789-0.004c0.432-0.04,0.544,0.153,0.542,0.549c-0.021,2.922-0.042,5.844-0.024,8.766     c0.004,0.762-0.263,1.136-1.066,1.074c-0.242-0.019-0.501-0.004-0.482,0.332c0.019,0.335,0.292,0.298,0.523,0.298     c1.229,0.002,2.457,0.002,3.686,0.001c0.231,0,0.494,0.044,0.498-0.311c0.005-0.352-0.255-0.338-0.487-0.32     c-0.883,0.069-1.1-0.426-1.091-1.169C37.137,56.12,37.126,54.716,37.126,53.312z M43.792,59.323c0.614,0,1.229,0.01,1.843-0.006     c0.232-0.005,0.563,0.12,0.586-0.305c0.024-0.45-0.321-0.323-0.547-0.317c-0.79,0.021-1.07-0.337-1.062-1.104     c0.03-2.721,0.036-5.443-0.003-8.164c-0.012-0.829,0.16-1.351,1.135-1.287c0.225,0.015,0.489,0.021,0.476-0.335     c-0.013-0.376-0.299-0.281-0.507-0.282c-1.258-0.007-2.516-0.005-3.774-0.001c-0.221,0.001-0.502-0.062-0.492,0.306     c0.009,0.344,0.289,0.337,0.505,0.322c0.875-0.061,1.107,0.414,1.104,1.162c-0.011,2.721-0.008,5.443,0.001,8.165     c0.002,0.773-0.228,1.291-1.15,1.217c-0.224-0.019-0.492-0.056-0.467,0.316c0.023,0.346,0.279,0.311,0.509,0.312     C42.564,59.325,43.178,59.322,43.792,59.323z" fill="#22407A" fill-rule="evenodd"/>
					<path clip-rule="evenodd" d="M50.126,78.484c-14.7,0-29.401,0-44.101,0     c-1.111,0-1.112-0.001-1.112-1.118c0-4.531,0.014-9.063-0.015-13.594c-0.004-0.684,0.139-0.936,0.904-0.936     c29.547,0.02,59.094,0.02,88.641,0c0.802-0.001,0.975,0.259,0.97,0.989c-0.029,4.56-0.034,9.12,0.004,13.68     c0.007,0.788-0.205,0.998-1.015,0.996C79.644,78.478,64.885,78.484,50.126,78.484z M56.498,71.154     c0.364-0.119,0.645-0.199,0.916-0.3c1.487-0.554,2.262-1.705,2.147-3.183c-0.1-1.282-1.151-2.342-2.646-2.594     c-2.006-0.338-4.032-0.118-6.049-0.173c-0.22-0.006-0.407,0.027-0.408,0.314c0,0.269,0.146,0.359,0.386,0.338     c0.896-0.079,0.999,0.49,0.999,1.153c-0.001,2.753,0.01,5.507-0.007,8.26c-0.006,0.993-0.738,1.454-1.654,1.063     c-0.47-0.201-0.615-0.668-0.787-1.092c-1.291-3.187-2.576-6.376-3.867-9.562c-0.133-0.329-0.178-0.687-0.725-0.688     c-0.579-0.001-0.562,0.408-0.676,0.724c-1.178,3.258-2.337,6.522-3.518,9.779c-0.392,1.083-1.088,1.22-1.754,0.283     c-0.995-1.398-1.889-2.864-2.84-4.322c0.224-0.075,0.361-0.123,0.5-0.168c1.877-0.604,2.684-1.686,2.536-3.403     c-0.119-1.388-1.194-2.301-3.054-2.562c-1.835-0.256-3.684-0.063-5.525-0.12c-0.258-0.008-0.47,0.021-0.455,0.354     c0.013,0.282,0.196,0.317,0.419,0.302c0.647-0.046,0.886,0.275,0.884,0.878c-0.008,2.924-0.005,5.849-0.001,8.772     c0.001,0.547-0.208,0.878-0.817,0.873c-0.229-0.002-0.5-0.024-0.48,0.33c0.021,0.353,0.301,0.29,0.522,0.291     c1.054,0.006,2.108,0.007,3.163,0c0.217-0.001,0.503,0.073,0.538-0.273c0.035-0.351-0.231-0.354-0.466-0.342     c-0.686,0.033-0.853-0.411-0.863-0.936c-0.023-1.118,0.002-2.237-0.014-3.355c-0.005-0.367,0.131-0.484,0.507-0.512     c0.668-0.048,1.116,0.095,1.475,0.743c0.779,1.407,1.675,2.752,2.519,4.124c0.183,0.299,0.337,0.572,0.785,0.562     c1.229-0.026,2.46-0.007,3.69-0.012c0.225,0,0.498,0.051,0.509-0.305c0.009-0.281-0.181-0.313-0.404-0.324     c-0.493-0.021-0.553-0.31-0.472-0.713c0.462-2.301,0.559-2.382,2.941-2.382c0.117,0,0.234,0,0.352,0c2.247,0,2.247,0,2.966,2.088     c0.019,0.055,0.025,0.113,0.046,0.166c0.166,0.438,0.196,0.808-0.44,0.84c-0.235,0.012-0.407,0.089-0.377,0.356     c0.031,0.272,0.246,0.276,0.459,0.276c2.255-0.001,4.51,0,6.765-0.002c0.202,0,0.429,0.022,0.464-0.262     c0.042-0.342-0.199-0.365-0.447-0.36c-0.605,0.015-0.829-0.305-0.826-0.859c0.007-1.146,0.011-2.294-0.007-3.441     c-0.006-0.374,0.136-0.469,0.509-0.498c0.685-0.055,1.114,0.149,1.466,0.771c0.792,1.401,1.673,2.754,2.521,4.125     c0.163,0.266,0.288,0.557,0.707,0.534c0.525-0.029,1.054-0.004,1.581-0.008c0.2-0.002,0.424,0.029,0.442-0.273     c0.018-0.261-0.106-0.345-0.359-0.359c-0.522-0.028-0.836-0.371-1.094-0.768C58.303,73.955,57.432,72.602,56.498,71.154z      M26.75,70.465c0.099-0.09,0.149-0.166,0.22-0.196c1.598-0.669,2.34-1.672,2.167-2.935c-0.18-1.302-1.101-2.148-2.852-2.304     c-3.437-0.306-6.888-0.052-10.333-0.125c-0.24-0.005-0.482-0.01-0.468,0.342c0.015,0.354,0.273,0.326,0.501,0.31     c0.689-0.048,1.128,0.138,1.124,0.928c-0.015,2.896-0.007,5.79-0.006,8.686c0,0.583-0.243,0.901-0.886,0.919     c-0.259,0.007-0.764-0.194-0.71,0.342c0.048,0.477,0.513,0.263,0.788,0.267c1.511,0.021,3.023,0.027,4.534,0.003     c2.046-0.032,4.099,0.155,6.136-0.117c1.556-0.207,2.602-1.271,2.751-2.689c0.17-1.615-0.464-2.596-2.054-3.158     C27.379,70.635,27.083,70.562,26.75,70.465z M85.777,70.914c-0.009-4.983-4.476-7.753-9.123-5.643     c-2.438,1.107-3.206,3.412-3.108,5.948c0.069,1.793,0.525,3.514,2.149,4.582c2.301,1.515,4.803,1.556,7.25,0.415     C85.177,75.177,85.753,73.153,85.777,70.914z M89.941,64.903c-1.084,0-2.167,0-3.251,0.001c-0.234,0-0.493-0.031-0.507,0.312     c-0.013,0.337,0.223,0.356,0.473,0.346c0.626-0.029,0.82,0.34,0.821,0.866c0.004,2.926,0.006,5.852-0.003,8.776     c-0.001,0.466-0.147,0.85-0.736,0.874c-0.24,0.011-0.601-0.056-0.542,0.359c0.054,0.377,0.396,0.264,0.637,0.266     c1.055,0.01,2.108,0.009,3.163,0.001c0.243-0.002,0.588,0.097,0.61-0.294c0.025-0.418-0.339-0.323-0.573-0.321     c-0.718,0.006-0.977-0.33-0.955-1.018c0.036-1.117,0.03-2.237,0-3.354c-0.013-0.463,0.087-0.704,0.614-0.636     c0.259,0.034,0.526,0.006,0.79,0.006c1.237,0.001,1.249-0.001,1.384,1.188c0.034,0.297,0.071,0.494,0.443,0.474     c0.371-0.021,0.309-0.277,0.31-0.494c0.005-1.004,0.003-2.008,0.002-3.012c0-0.259,0.038-0.527-0.381-0.514     c-0.414,0.014-0.371,0.289-0.365,0.542c0.02,0.865-0.435,1.176-1.271,1.089c-0.319-0.033-0.646-0.026-0.966-0.001     c-0.418,0.034-0.57-0.118-0.558-0.535c0.026-0.831,0.008-1.663,0.008-2.495c0-1.638,0.001-1.606,1.673-1.648     c1.242-0.031,2.465-0.143,2.61,1.562c0.026,0.304,0.33,0.278,0.563,0.259c0.346-0.031,0.215-0.256,0.176-0.443     c-0.114-0.531-0.245-1.061-0.333-1.596c-0.073-0.449-0.292-0.59-0.762-0.571C91.992,64.931,90.966,64.903,89.941,64.903z      M65.732,70.667c-0.946-1.517-1.815-2.9-2.675-4.289c-0.282-0.457-0.335-0.834,0.402-0.815c0.278,0.007,0.347-0.134,0.338-0.375     c-0.009-0.229-0.141-0.283-0.34-0.283c-1.053,0.001-2.106,0-3.16,0.001c-0.192,0.001-0.345,0.052-0.346,0.282     c-0.001,0.184,0.02,0.356,0.257,0.369c0.565,0.031,0.764,0.485,1.015,0.857c0.514,0.764,0.919,1.611,1.513,2.308     c1.579,1.851,2.041,3.952,1.803,6.3c-0.071,0.7-0.234,1.092-1.002,1.065c-0.232-0.008-0.5-0.021-0.473,0.333     c0.026,0.348,0.308,0.283,0.527,0.284c1.171,0.006,2.341,0.007,3.512,0c0.218-0.001,0.502,0.069,0.533-0.279     c0.031-0.354-0.24-0.349-0.471-0.336c-0.897,0.05-0.989-0.476-1.064-1.199c-0.235-2.262,0.26-4.275,1.734-6.071     c0.581-0.708,0.986-1.553,1.487-2.325c0.259-0.397,0.424-0.898,1.037-0.944c0.227-0.018,0.238-0.224,0.216-0.4     c-0.021-0.165-0.14-0.24-0.305-0.241c-0.731-0.001-1.463,0-2.194-0.003c-0.208,0-0.335,0.086-0.346,0.296     c-0.009,0.19,0.048,0.35,0.276,0.355c0.862,0.023,0.514,0.509,0.309,0.855C67.5,67.794,66.651,69.159,65.732,70.667z      M10.84,76.707c0.644,0,1.288,0,1.931,0c2.22,0,2.22,0,2.644-2.126c0.011-0.057,0.03-0.112,0.034-0.169     c0.013-0.188,0.115-0.427-0.223-0.438c-0.195-0.006-0.424-0.065-0.506,0.207c-0.065,0.219-0.136,0.437-0.195,0.658     c-0.2,0.756-0.609,1.169-1.494,1.095c-0.872-0.072-1.757-0.054-2.632-0.003c-0.64,0.037-0.804-0.223-0.8-0.794     c0.017-2.837,0.013-5.675,0.005-8.512c-0.002-0.648,0.108-1.162,0.954-1.065c0.254,0.028,0.378-0.075,0.376-0.337     c-0.002-0.273-0.153-0.324-0.395-0.323c-1.141,0.008-2.282,0.003-3.423,0.005c-0.199,0-0.419-0.038-0.441,0.269     c-0.021,0.308,0.121,0.414,0.413,0.388c0.646-0.059,0.884,0.272,0.899,0.865c0.073,2.948,0.103,5.896-0.016,8.845     c-0.021,0.516-0.222,0.805-0.781,0.813c-0.207,0.004-0.506-0.083-0.512,0.29C6.672,76.802,7,76.702,7.24,76.704     C8.44,76.711,9.64,76.707,10.84,76.707z" fill="#22407A" fill-rule="evenodd"/>
					<path clip-rule="evenodd" d="M4.937,29.083c-0.001-0.239-0.001-0.477-0.002-0.716     c10.97-2.513,21.94-5.026,32.911-7.54c2.062-0.472,4.125-0.947,6.187-1.42c-0.01-0.057-0.019-0.113-0.028-0.17     c-13.022,0.982-26.045,1.965-39.067,2.947c0.003-0.245,0.006-0.49,0.009-0.735c3.033-0.223,6.067-0.44,9.1-0.669     c5.015-0.378,10.03-0.767,15.045-1.145c4.866-0.366,9.732-0.725,14.599-1.086c-0.062-0.258-0.243-0.293-0.467-0.308     c-0.701-0.047-1.399-0.114-2.099-0.172c-4.372-0.362-8.744-0.721-13.116-1.087c-4.545-0.381-9.09-0.768-13.635-1.157     c-3.146-0.269-6.292-0.546-9.438-0.819c0.001-0.234,0.003-0.469,0.005-0.704c13.019,1.096,26.039,2.191,39.058,3.287     c-0.22-0.226-0.461-0.306-0.708-0.365c-7.595-1.817-15.19-3.634-22.787-5.447C15.316,10.539,10.128,9.306,4.94,8.071     c-0.001-0.25-0.001-0.499-0.002-0.748C5.168,7.366,5.4,7.399,5.627,7.453c12.015,2.885,24.027,5.775,36.045,8.646     c0.716,0.171,1.419,0.489,2.224,0.41c-0.167-0.299-0.453-0.321-0.682-0.415c-5.94-2.446-11.886-4.879-17.826-7.326     c-3.056-1.259-6.102-2.54-9.152-3.811c0.708-0.106,1.412-0.069,2.114,0.046c0.221,0.253,0.553,0.306,0.841,0.425     c3.76,1.552,7.522,3.099,11.288,4.637c3.253,1.329,6.512,2.646,9.769,3.968c3.212,1.463,6.063,3.523,9.093,5.287     c0.587,0.342,0.963,0.351,1.533-0.009c1.442-0.91,2.94-1.732,4.417-2.589c0.232-0.025,0.47-0.026,0.694-0.08     c10.518-2.492,21.033-4.992,31.552-7.48c2.607-0.617,5.226-1.193,7.838-1.788c-0.002,0.232-0.004,0.465-0.006,0.697     c-13.229,3.125-26.458,6.25-39.688,9.376c1.218,0.061,2.411-0.018,3.604-0.115c4.689-0.381,9.378-0.769,14.067-1.155     c3.873-0.319,7.745-0.648,11.62-0.955c3.465-0.274,6.933-0.523,10.399-0.783c-0.004,0.229-0.008,0.457-0.012,0.686     c-0.757,0.06-1.515,0.118-2.272,0.178c-5.301,0.421-10.602,0.838-15.901,1.266c-6.173,0.498-12.345,1.003-18.518,1.509     c-0.866,0.071-1.731,0.161-2.829,0.264c0.306,0.164,0.37,0.227,0.439,0.232c4.11,0.294,8.22,0.582,12.33,0.874     c4.343,0.309,8.685,0.62,13.027,0.932c4.576,0.328,9.152,0.658,13.728,0.987c0.003,0.231,0.006,0.463,0.009,0.694     c-1.078-0.067-2.157-0.125-3.234-0.201c-5.129-0.361-10.259-0.72-15.387-1.093c-5.914-0.431-11.826-0.894-17.742-1.299     c-1.175-0.081-2.353-0.32-3.577-0.156c0.076,0.062,0.112,0.115,0.159,0.125c7.312,1.735,14.626,3.461,21.937,5.2     c5.95,1.415,11.896,2.845,17.843,4.269c-0.001,0.232-0.003,0.464-0.005,0.696c-0.399-0.082-0.801-0.151-1.197-0.246     c-12.366-2.947-24.73-5.9-37.1-8.833c-0.411-0.098-0.834-0.354-1.406-0.139c5.839,2.359,11.58,4.674,17.316,6.999     c7.465,3.024,14.927,6.056,22.391,9.085c0,0.239,0.001,0.478,0.002,0.717c-0.221-0.07-0.448-0.124-0.661-0.21     c-12.797-5.176-25.592-10.355-38.388-15.531c-0.34-0.138-0.661-0.387-1.094-0.214c0.359,0.211,0.705,0.409,1.047,0.615     c9.008,5.416,18.018,10.828,27.021,16.249c3.157,1.901,6.301,3.825,9.451,5.738c-0.458,0-0.917,0-1.375,0     c-12.09-7.273-24.181-14.548-36.273-21.818c-0.114-0.068-0.231-0.285-0.427-0.049c0.133,0.121,0.257,0.241,0.39,0.353     c6.049,5.104,12.102,10.202,18.146,15.311c2.434,2.058,4.85,4.136,7.273,6.206c-0.354,0-0.71,0-1.065,0     c-8.16-6.884-16.319-13.77-24.605-20.76c-0.059,0.545,0.16,0.678,0.303,0.841c3.956,4.524,7.921,9.04,11.873,13.567     c1.841,2.109,3.657,4.239,5.484,6.359c-0.313-0.004-0.628-0.009-0.941-0.013c-2.254-2.588-4.501-5.183-6.765-7.764     c-3.52-4.014-7.051-8.019-10.577-12.027c-0.1-0.113-0.216-0.146-0.354-0.072c0.056,0.079,0.111,0.157,0.167,0.235     c2.988,4.741,5.98,9.48,8.963,14.225c1.13,1.799,2.238,3.611,3.355,5.417c-0.267-0.002-0.534-0.005-0.801-0.008     c-4.177-6.6-8.354-13.201-12.531-19.802c-0.069,0.041-0.139,0.082-0.207,0.123c2.831,6.559,5.663,13.117,8.495,19.675     c-0.271-0.001-0.543-0.003-0.813-0.004c-2.815-6.523-5.631-13.047-8.446-19.571c-0.159,0.223-0.168,0.393-0.129,0.551     c0.769,3.047,1.551,6.091,2.314,9.14c0.825,3.297,1.635,6.599,2.452,9.898c-0.242-0.005-0.484-0.011-0.727-0.016     C54.264,37.217,52.601,30.609,50.937,24c0.036,2.444,0.252,4.857,0.467,7.271c0.373,4.185,0.746,8.371,1.118,12.556     c-0.231,0.002-0.463,0.005-0.694,0.007c-0.106-1.023-0.225-2.045-0.316-3.07c-0.435-4.875-0.852-9.752-1.305-14.626     c-0.052-0.557,0.006-1.155-0.289-1.795c-0.098,0.177-0.162,0.241-0.166,0.308c-0.248,4.285-0.482,8.571-0.738,12.855     c-0.126,2.112-0.293,4.223-0.441,6.334c-0.218,0.001-0.437,0.002-0.654,0.003c0.29-4.828,0.579-9.656,0.867-14.484     c0.102-1.711,0.2-3.423,0.3-5.134c-0.606,1.707-1.035,3.442-1.458,5.179c-1.17,4.809-2.338,9.619-3.507,14.429     c-0.237-0.002-0.474-0.005-0.711-0.007c1.587-6.614,3.174-13.227,4.761-19.84c-0.054-0.018-0.107-0.035-0.161-0.052     c-2.766,6.63-5.531,13.261-8.296,19.891c-0.246,0.006-0.492,0.011-0.737,0.017c0.065-0.218,0.11-0.443,0.197-0.652     c2.025-4.859,4.056-9.715,6.083-14.573c0.688-1.648,1.371-3.3,2.056-4.95c-0.067-0.034-0.135-0.068-0.202-0.102     c-4.281,6.755-8.562,13.51-12.844,20.266c-0.286-0.001-0.572-0.002-0.857-0.003c2.288-3.624,4.579-7.247,6.864-10.873     c1.885-2.992,3.764-5.988,5.646-8.981c0.142-0.149,0.344-0.271,0.245-0.585c-0.15,0.167-0.272,0.304-0.395,0.44     c-5.742,6.669-11.484,13.339-17.226,20.009c-0.314-0.003-0.628-0.006-0.942-0.008c0.575-0.686,1.141-1.378,1.724-2.056     c5.385-6.267,10.772-12.531,16.158-18.795c0.042-0.05,0.084-0.099,0.126-0.148c0.104-0.111,0.341-0.236,0.196-0.371     c-0.134-0.125-0.238,0.108-0.327,0.223c-0.066,0.051-0.132,0.102-0.198,0.153c-0.765,0.617-1.538,1.223-2.292,1.852     c-7.653,6.38-15.304,12.763-22.955,19.145c-0.355,0.003-0.71,0.006-1.065,0.009c0.203-0.204,0.39-0.424,0.61-0.607     c8.066-6.722,16.136-13.439,24.205-20.159c0.353-0.294,0.695-0.601,1.16-1.003c-0.536-0.009-0.744,0.219-0.981,0.36     c-5.564,3.318-11.125,6.641-16.683,9.969c-6.353,3.805-12.702,7.617-19.052,11.427c-0.457,0.003-0.914,0.006-1.371,0.01     c0.235-0.166,0.46-0.348,0.707-0.496c11.744-7.026,23.49-14.049,35.236-21.074c0.646-0.387,1.288-0.781,2.011-1.22     c-0.385-0.116-0.58,0.054-0.785,0.135c-10.272,4.082-20.54,8.173-30.812,12.254c-2.755,1.095-5.521,2.161-8.282,3.24     c0.001-0.244,0.003-0.488,0.005-0.732c12.982-5.164,25.965-10.328,39.096-15.55c-0.455-0.114-0.709-0.078-0.971-0.018     c-3.78,0.87-7.561,1.736-11.342,2.599C22.791,25.011,13.864,27.047,4.937,29.083z M54.131,22.564     c-0.037,0.044-0.087,0.104-0.086,0.105c0.226,0.187,0.306,0.574,0.752,0.567C54.649,22.873,54.41,22.699,54.131,22.564z" fill="#EFF0F4" fill-rule="evenodd"/>
					<path clip-rule="evenodd" d="M4.93,36.674c2.761-1.079,5.527-2.145,8.282-3.24     c10.272-4.082,20.54-8.173,30.812-12.254c0.205-0.082,0.4-0.251,0.785-0.135c-0.723,0.439-1.364,0.833-2.011,1.22     C31.052,29.289,19.306,36.312,7.562,43.338c-0.247,0.147-0.472,0.33-0.707,0.496c-1.942,0.09-1.944,0.09-1.941-1.749     C4.917,40.281,4.924,38.478,4.93,36.674z" fill="#22407A" fill-rule="evenodd"/>
					<path clip-rule="evenodd" d="M92.749,43.832c-3.15-1.913-6.294-3.836-9.451-5.738     c-9.004-5.421-18.014-10.833-27.021-16.249c-0.342-0.206-0.688-0.404-1.047-0.615c0.433-0.173,0.754,0.077,1.094,0.214     c12.796,5.176,25.591,10.354,38.388,15.531c0.213,0.086,0.44,0.14,0.661,0.21c0.009,1.999,0.006,3.998,0.034,5.997     c0.008,0.536-0.222,0.706-0.733,0.681C94.032,43.833,93.391,43.841,92.749,43.832z" fill="#22407A" fill-rule="evenodd"/>
					<path clip-rule="evenodd" d="M95.371,28.907c-5.947-1.423-11.893-2.854-17.843-4.269     c-7.311-1.739-14.625-3.465-21.937-5.2c-0.047-0.011-0.083-0.064-0.159-0.125c1.225-0.164,2.402,0.076,3.577,0.156     c5.916,0.405,11.828,0.869,17.742,1.299c5.128,0.373,10.258,0.732,15.387,1.093c1.077,0.076,2.156,0.134,3.234,0.201     C95.373,24.343,95.372,26.625,95.371,28.907z" fill="#22407A" fill-rule="evenodd"/>
					<path clip-rule="evenodd" d="M95.37,36.468c-7.464-3.029-14.926-6.061-22.391-9.085     c-5.736-2.325-11.478-4.64-17.316-6.999c0.572-0.215,0.995,0.042,1.406,0.139c12.369,2.934,24.733,5.886,37.1,8.833     c0.396,0.094,0.798,0.164,1.197,0.246C95.367,31.892,95.369,34.18,95.37,36.468z" fill="#22407A" fill-rule="evenodd"/>
					<path clip-rule="evenodd" d="M4.937,29.083c8.927-2.037,17.854-4.073,26.78-6.11     c3.781-0.863,7.562-1.729,11.342-2.599c0.262-0.061,0.517-0.096,0.971,0.018c-13.131,5.222-26.113,10.386-39.096,15.55     C4.936,33.655,4.936,31.369,4.937,29.083z" fill="#22407A" fill-rule="evenodd"/>
					<path clip-rule="evenodd" d="M4.935,15.005c3.146,0.273,6.292,0.55,9.438,0.819     c4.544,0.389,9.089,0.776,13.635,1.157c4.372,0.366,8.744,0.725,13.116,1.087c0.7,0.058,1.398,0.125,2.099,0.172     c0.224,0.015,0.405,0.05,0.467,0.308c-4.867,0.362-9.733,0.72-14.599,1.086c-5.015,0.378-10.03,0.767-15.045,1.145     c-3.033,0.229-6.067,0.446-9.1,0.669C4.942,19.302,4.938,17.153,4.935,15.005z" fill="#22407A" fill-rule="evenodd"/>
					<path clip-rule="evenodd" d="M95.372,14.439c-3.467,0.26-6.935,0.509-10.399,0.783     c-3.875,0.307-7.747,0.636-11.62,0.955c-4.689,0.386-9.378,0.773-14.067,1.155c-1.192,0.097-2.386,0.175-3.604,0.115     c13.229-3.125,26.459-6.25,39.688-9.376C95.37,10.194,95.371,12.316,95.372,14.439z" fill="#22407A" fill-rule="evenodd"/>
					<path clip-rule="evenodd" d="M95.364,21.367c-4.575-0.329-9.151-0.659-13.728-0.987     c-4.343-0.312-8.685-0.624-13.027-0.932c-4.11-0.292-8.22-0.58-12.33-0.874c-0.069-0.005-0.134-0.068-0.439-0.232     c1.098-0.103,1.963-0.193,2.829-0.264c6.173-0.506,12.345-1.012,18.518-1.509c5.3-0.428,10.601-0.845,15.901-1.266     c0.758-0.06,1.516-0.119,2.272-0.178C95.361,17.206,95.363,19.287,95.364,21.367z" fill="#22407A" fill-rule="evenodd"/>
					<path clip-rule="evenodd" d="M4.94,8.071c5.188,1.235,10.375,2.468,15.562,3.706     c7.596,1.813,15.191,3.629,22.787,5.447c0.247,0.059,0.489,0.139,0.708,0.365c-13.02-1.096-26.039-2.191-39.058-3.287     C4.939,12.225,4.94,10.148,4.94,8.071z" fill="#22407A" fill-rule="evenodd"/>
					<path clip-rule="evenodd" d="M4.937,22.185c13.022-0.982,26.044-1.965,39.067-2.947     c0.009,0.057,0.019,0.113,0.028,0.17c-2.062,0.474-4.125,0.948-6.187,1.42c-10.97,2.514-21.94,5.027-32.911,7.54     C4.935,26.307,4.936,24.246,4.937,22.185z" fill="#22407A" fill-rule="evenodd"/>
					<path clip-rule="evenodd" d="M80.483,43.833c-2.424-2.069-4.84-4.148-7.273-6.206     c-6.045-5.108-12.098-10.207-18.146-15.311c-0.133-0.112-0.257-0.232-0.39-0.353c0.195-0.236,0.312-0.019,0.427,0.049     c12.093,7.271,24.184,14.545,36.273,21.818C87.744,43.833,84.114,43.833,80.483,43.833z" fill="#22407A" fill-rule="evenodd"/>
					<path clip-rule="evenodd" d="M8.226,43.824c6.351-3.81,12.699-7.622,19.052-11.427     c5.557-3.329,11.118-6.651,16.683-9.969c0.237-0.142,0.446-0.37,0.981-0.36c-0.465,0.403-0.807,0.709-1.16,1.003     c-8.068,6.72-16.138,13.438-24.205,20.159c-0.22,0.184-0.408,0.404-0.61,0.607C15.387,43.833,11.807,43.829,8.226,43.824z" fill="#22407A" fill-rule="evenodd"/>
					<path clip-rule="evenodd" d="M95.375,7.374c-2.612,0.595-5.23,1.171-7.838,1.788     c-10.519,2.488-21.034,4.988-31.552,7.48c-0.225,0.053-0.462,0.054-0.694,0.08c0.381-0.236,0.763-0.473,1.144-0.709     c0.367,0.048,0.683-0.111,1.006-0.243c8.471-3.452,16.942-6.902,25.413-10.355c0.341-0.139,0.707-0.237,0.967-0.522     c1.742,0.154,3.488,0.048,5.232,0.067c1.862,0.02,3.726,0.02,5.589-0.005c0.547-0.007,0.814,0.124,0.765,0.712     C95.359,6.232,95.383,6.804,95.375,7.374z" fill="#22407A" fill-rule="evenodd"/>
					<path clip-rule="evenodd" d="M16.236,4.956c3.05,1.271,6.096,2.552,9.152,3.811     c5.94,2.447,11.885,4.88,17.826,7.326c0.229,0.094,0.516,0.116,0.682,0.415c-0.804,0.079-1.508-0.239-2.224-0.41     c-12.018-2.87-24.031-5.761-36.045-8.646C5.4,7.399,5.168,7.366,4.938,7.323C4.83,4.963,4.83,4.964,7.213,4.963     C10.221,4.961,13.229,4.958,16.236,4.956z" fill="#22407A" fill-rule="evenodd"/>
					<path clip-rule="evenodd" d="M20.033,43.829c7.651-6.382,15.302-12.765,22.955-19.145     c0.754-0.629,1.528-1.235,2.292-1.852c0.068,0.048,0.136,0.096,0.203,0.144C40.097,29.24,34.71,35.504,29.325,41.771     c-0.583,0.678-1.149,1.371-1.724,2.056C25.078,43.828,22.556,43.828,20.033,43.829z" fill="#22407A" fill-rule="evenodd"/>
					<path clip-rule="evenodd" d="M72.473,43.839c-1.827-2.12-3.644-4.25-5.484-6.359     c-3.952-4.527-7.917-9.043-11.873-13.567c-0.143-0.163-0.361-0.295-0.303-0.841c8.286,6.991,16.445,13.876,24.605,20.76     C77.103,43.834,74.788,43.836,72.473,43.839z" fill="#22407A" fill-rule="evenodd"/>
					<path clip-rule="evenodd" d="M66.32,43.84c-1.117-1.806-2.226-3.618-3.355-5.417     c-2.982-4.745-5.975-9.483-8.963-14.225c0.062-0.055,0.125-0.109,0.188-0.164c3.526,4.008,7.058,8.013,10.577,12.027     c2.264,2.581,4.511,5.175,6.765,7.764C69.794,43.831,68.058,43.835,66.32,43.84z" fill="#22407A" fill-rule="evenodd"/>
					<path clip-rule="evenodd" d="M45.919,23.972c-1.882,2.994-3.761,5.99-5.646,8.981     c-2.285,3.626-4.576,7.249-6.864,10.873c-1.623,0.003-3.245,0.007-4.867,0.01c5.743-6.67,11.484-13.34,17.227-20.009     C45.819,23.875,45.869,23.923,45.919,23.972z" fill="#22407A" fill-rule="evenodd"/>
					<path clip-rule="evenodd" d="M34.267,43.829c4.281-6.755,8.562-13.51,12.844-20.266     c0.067,0.034,0.135,0.068,0.202,0.102c-0.685,1.65-1.367,3.302-2.056,4.95c-2.027,4.858-4.058,9.714-6.083,14.573     c-0.087,0.209-0.132,0.434-0.197,0.652C37.406,43.837,35.836,43.833,34.267,43.829z" fill="#22407A" fill-rule="evenodd"/>
					<path clip-rule="evenodd" d="M61.276,43.828c-2.832-6.558-5.664-13.116-8.495-19.675     c0.068-0.041,0.138-0.082,0.207-0.123c4.177,6.601,8.354,13.202,12.531,19.802C64.104,43.831,62.69,43.83,61.276,43.828z" fill="#22407A" fill-rule="evenodd"/>
					<path clip-rule="evenodd" d="M56.654,43.842c-0.817-3.3-1.627-6.601-2.452-9.898     c-0.764-3.049-1.546-6.093-2.314-9.14c-0.039-0.158-0.03-0.328,0.129-0.551c2.815,6.524,5.631,13.048,8.446,19.571     C59.193,43.83,57.924,43.836,56.654,43.842z" fill="#22407A" fill-rule="evenodd"/>
					<path clip-rule="evenodd" d="M44.121,43.833c1.169-4.81,2.336-9.62,3.507-14.429     c0.422-1.737,0.851-3.472,1.458-5.179c-0.1,1.711-0.198,3.423-0.3,5.134c-0.288,4.828-0.578,9.656-0.867,14.484     C46.652,43.839,45.387,43.836,44.121,43.833z" fill="#22407A" fill-rule="evenodd"/>
					<path clip-rule="evenodd" d="M39.713,43.824c2.765-6.63,5.531-13.26,8.296-19.891     c0.054,0.018,0.107,0.035,0.161,0.052c-1.586,6.613-3.173,13.227-4.761,19.84C42.177,43.825,40.945,43.824,39.713,43.824z" fill="#22407A" fill-rule="evenodd"/>
					<path clip-rule="evenodd" d="M52.521,43.827c-0.372-4.186-0.745-8.371-1.118-12.556     c-0.215-2.413-0.431-4.826-0.467-7.271c1.664,6.609,3.327,13.217,4.991,19.826C54.792,43.826,53.657,43.826,52.521,43.827z" fill="#22407A" fill-rule="evenodd"/>
					<path clip-rule="evenodd" d="M40.248,14.033c-3.256-1.322-6.515-2.639-9.769-3.968     c-3.766-1.539-7.528-3.085-11.288-4.637c-0.289-0.119-0.62-0.172-0.841-0.425c2.281-0.013,4.562-0.023,6.842-0.041     c0.309-0.002,0.561,0.11,0.815,0.264c4.624,2.796,9.251,5.587,13.877,8.381C40.05,13.708,40.273,13.771,40.248,14.033z" fill="#22407A" fill-rule="evenodd"/>
					<path clip-rule="evenodd" d="M48.572,43.84c0.148-2.111,0.315-4.222,0.441-6.334     c0.256-4.285,0.49-8.57,0.738-12.855c0.004-0.067,0.068-0.13,0.166-0.308c0.294,0.64,0.237,1.238,0.289,1.795     c0.453,4.874,0.87,9.75,1.305,14.626c0.092,1.025,0.21,2.047,0.316,3.07C50.742,43.836,49.657,43.838,48.572,43.84z" fill="#22407A" fill-rule="evenodd"/>
					<path clip-rule="evenodd" d="M61.355,13.29c-0.1-0.424,0.309-0.43,0.519-0.556     c4.084-2.466,8.179-4.917,12.266-7.377c0.464-0.279,0.935-0.413,1.488-0.403c2.049,0.035,4.098,0.032,6.147,0.043     C81.68,5.056,81.592,5.13,81.49,5.172c-4.82,1.967-9.636,3.945-14.465,5.891C65.142,11.822,63.311,12.709,61.355,13.29z" fill="#22407A" fill-rule="evenodd"/>
					<path clip-rule="evenodd" d="M61.355,13.29c1.955-0.581,3.786-1.468,5.67-2.227     C71.854,9.118,76.67,7.14,81.49,5.172c0.102-0.042,0.189-0.116,0.285-0.175c0.682-0.035,1.363-0.07,2.045-0.105     c-0.26,0.285-0.626,0.383-0.967,0.522c-8.471,3.453-16.942,6.903-25.413,10.355c-0.323,0.132-0.639,0.291-1.006,0.243     c1.306-0.905,2.694-1.673,4.111-2.394c0.181,0.012,0.368,0.038,0.446-0.186l-0.005,0.004c0.151,0.009,0.323,0.062,0.358-0.168     L61.355,13.29z" fill="#EFF0F4" fill-rule="evenodd"/>
					<path clip-rule="evenodd" d="M61.346,13.268c-0.035,0.229-0.207,0.177-0.358,0.168     C61.033,13.229,61.15,13.168,61.346,13.268z" fill="#22407A" fill-rule="evenodd"/>
					<path clip-rule="evenodd" d="M60.992,13.432c-0.078,0.224-0.266,0.197-0.446,0.186     C60.654,13.462,60.787,13.362,60.992,13.432z" fill="#22407A" fill-rule="evenodd"/>
					<path clip-rule="evenodd" d="M21.104,84.203c-1,2.112-2.001,4.224-3,6.336     c-0.417,0.881-0.824,1.768-1.252,2.644c-0.117,0.24-0.16,0.572-0.564,0.563c-0.393-0.01-0.446-0.336-0.564-0.577     c-1.435-2.906-2.86-5.818-4.288-8.729c-0.073-0.149-0.149-0.297-0.359-0.437c0,1.293-0.004,2.585,0.001,3.877     c0.005,1.376,0.027,2.752,0.023,4.129c-0.001,0.584,0.125,1.018,0.847,1.027c0.223,0.003,0.503,0.04,0.461,0.377     c-0.038,0.306-0.3,0.214-0.482,0.216c-0.849,0.01-1.699,0.008-2.548,0.002c-0.188-0.002-0.431,0.069-0.449-0.251     c-0.017-0.292,0.207-0.338,0.402-0.336c0.895,0.01,0.925-0.569,0.923-1.217c-0.009-2.725-0.013-5.45,0.003-8.175     c0.004-0.683-0.098-1.214-0.97-1.172c-0.187,0.009-0.345-0.028-0.358-0.267c-0.015-0.282,0.157-0.328,0.387-0.327     c0.703,0.002,1.406,0.013,2.109-0.004c0.488-0.013,0.539,0.387,0.681,0.671c1.493,3.006,2.973,6.018,4.462,9.039     c0.344-0.181,0.379-0.517,0.507-0.785c1.31-2.744,2.622-5.487,3.901-8.245c0.238-0.513,0.516-0.752,1.113-0.689     c0.579,0.06,1.17,0.015,1.756,0.014c0.214,0,0.409,0.001,0.411,0.301c0.001,0.306-0.198,0.303-0.409,0.296     c-0.798-0.026-0.967,0.438-0.963,1.107c0.014,2.753,0.015,5.507-0.001,8.26c-0.004,0.686,0.122,1.198,0.974,1.194     c0.195-0.001,0.414,0.028,0.399,0.331c-0.016,0.327-0.254,0.254-0.44,0.255c-1.113,0.005-2.226,0.007-3.339-0.002     c-0.18-0.001-0.438,0.095-0.474-0.223c-0.032-0.277,0.162-0.356,0.375-0.358c0.876-0.006,0.918-0.55,0.912-1.219     c-0.023-2.523-0.009-5.047-0.009-7.57C21.222,84.24,21.163,84.222,21.104,84.203z" fill="#EFF0F4" fill-rule="evenodd"/>
					<path clip-rule="evenodd" d="M35.165,87.78c0-1.405-0.028-2.811,0.012-4.214     c0.021-0.707-0.188-1.104-0.965-1.084c-0.196,0.005-0.427,0.036-0.448-0.27c-0.02-0.291,0.172-0.329,0.391-0.322     c2.511,0.079,5.039-0.237,7.531,0.227c1.52,0.283,2.692,1.131,3.362,2.507c1.048,2.154,1.001,4.352-0.165,6.429     c-1.052,1.875-2.953,2.444-4.979,2.546c-1.868,0.094-3.745,0.034-5.618,0.029c-0.196,0-0.508,0.129-0.519-0.26     c-0.01-0.365,0.309-0.323,0.503-0.325c0.812-0.009,0.924-0.469,0.906-1.136C35.14,90.532,35.165,89.156,35.165,87.78z      M36.773,87.742c0,0.975,0,1.949,0,2.923c0,2.522,0,2.522,2.594,2.233c2.527-0.282,4.041-1.401,4.528-3.389     c0.298-1.216,0.293-2.449-0.026-3.657c-0.458-1.733-1.547-2.828-3.417-3.13c-0.877-0.143-1.753-0.033-2.623-0.114     c-0.806-0.074-1.102,0.204-1.071,1.009C36.811,84.99,36.773,86.367,36.773,87.742z" fill="#EFF0F4" fill-rule="evenodd"/>
					<path clip-rule="evenodd" d="M79.043,91.688c0-2.95,0.002-5.635-0.003-8.32     c-0.001-0.601-0.343-0.881-0.941-0.883c-0.245-0.001-0.49,0.001-0.45-0.35c0.035-0.301,0.275-0.245,0.467-0.246     c0.878-0.005,1.756-0.005,2.635,0c0.193,0.001,0.426-0.049,0.446,0.262c0.019,0.272-0.125,0.344-0.37,0.334     c-0.82-0.032-0.929,0.469-0.926,1.123c0.015,3.096,0.014,6.192-0.006,9.289c-0.002,0.295,0.239,0.746-0.267,0.873     c-0.449,0.113-0.812-0.027-1.121-0.441c-2.383-3.189-4.791-6.361-7.192-9.537c-0.065-0.086-0.139-0.167-0.206-0.246     c-0.221,0.07-0.16,0.238-0.16,0.362c-0.005,2.608-0.006,5.218-0.003,7.827c0.001,0.642-0.026,1.307,0.932,1.312     c0.206,0.001,0.412,0.064,0.389,0.349c-0.027,0.321-0.28,0.233-0.463,0.235c-0.878,0.008-1.757,0.007-2.635,0     c-0.188-0.001-0.427,0.058-0.432-0.266c-0.004-0.305,0.234-0.315,0.42-0.317c0.846-0.011,0.976-0.518,0.971-1.205     c-0.018-2.695-0.018-5.391,0-8.086c0.005-0.742-0.088-1.339-1.06-1.277c-0.203,0.013-0.325-0.074-0.33-0.297     c-0.005-0.237,0.146-0.29,0.336-0.291c0.79-0.004,1.581-0.011,2.371,0.002c0.466,0.008,0.585,0.437,0.798,0.719     c2.112,2.814,4.211,5.64,6.313,8.462C78.657,91.21,78.766,91.34,79.043,91.688z" fill="#EFF0F4" fill-rule="evenodd"/>
					<path clip-rule="evenodd" d="M85.676,93.635c-1.17,0-2.341,0.009-3.511-0.009     c-0.213-0.003-0.575,0.175-0.593-0.269c-0.014-0.358,0.312-0.32,0.505-0.324c0.722-0.014,0.87-0.46,0.87-1.03     c0.003-2.836,0-5.673,0.002-8.51c0.001-0.601-0.223-0.997-0.904-1.007c-0.231-0.004-0.502,0.027-0.476-0.329     c0.027-0.362,0.327-0.265,0.533-0.266c2.253-0.008,4.506,0,6.759-0.01c0.372-0.002,0.587,0.063,0.634,0.493     c0.058,0.537,0.221,1.063,0.319,1.598c0.036,0.196,0.206,0.474-0.202,0.519c-0.302,0.033-0.509-0.039-0.542-0.387     c-0.016-0.168-0.103-0.328-0.144-0.494c-0.176-0.712-0.59-1.058-1.381-1.003c-0.757,0.054-1.521,0.031-2.281,0.005     c-0.511-0.018-0.76,0.144-0.751,0.678c0.02,1.117,0.024,2.235-0.005,3.352c-0.011,0.446,0.186,0.534,0.575,0.511     c0.379-0.022,0.76-0.001,1.141-0.005c0.944-0.01,1.442,0.214,1.428-1.233c-0.004-0.313,0.136-0.381,0.421-0.38     c0.287,0.001,0.332,0.147,0.331,0.376c-0.004,1.089-0.004,2.178,0,3.266c0.001,0.237-0.064,0.366-0.344,0.369     c-0.306,0.003-0.374-0.123-0.413-0.403c-0.166-1.207-0.179-1.206-1.416-1.205c-1.713,0-1.713,0-1.713,1.695     c0,0.859,0.015,1.72-0.004,2.579c-0.012,0.512,0.191,0.716,0.727,0.699c0.935-0.03,1.874-0.046,2.808,0.004     c0.796,0.042,1.19-0.334,1.383-1.023c0.061-0.221,0.122-0.441,0.188-0.661c0.097-0.327,0.37-0.223,0.58-0.198     c0.28,0.031,0.164,0.258,0.137,0.401c-0.12,0.617-0.268,1.229-0.388,1.846c-0.079,0.405-0.382,0.357-0.674,0.356     C88.075,93.634,86.875,93.635,85.676,93.635z" fill="#EFF0F4" fill-rule="evenodd"/>
					<path clip-rule="evenodd" d="M28.689,93.635c-1.171,0-2.342,0.008-3.512-0.008     c-0.193-0.003-0.505,0.147-0.548-0.229c-0.041-0.355,0.261-0.356,0.468-0.359c0.765-0.014,0.909-0.489,0.909-1.095     c0-2.78-0.002-5.561,0.002-8.341c0.001-0.653-0.176-1.138-0.973-1.118c-0.215,0.005-0.414-0.013-0.411-0.307     c0.002-0.31,0.229-0.287,0.429-0.287c2.341-0.003,4.683-0.001,7.024-0.003c0.275-0.001,0.411,0.091,0.455,0.386     c0.089,0.593,0.236,1.178,0.345,1.768c0.033,0.179,0.152,0.427-0.195,0.447c-0.231,0.015-0.479,0.046-0.534-0.288     c-0.033-0.195-0.116-0.383-0.164-0.577c-0.174-0.706-0.572-1.07-1.37-1.016c-0.787,0.054-1.58,0.027-2.37,0.006     c-0.495-0.013-0.679,0.194-0.673,0.665c0.015,1.117,0.022,2.235-0.004,3.353c-0.01,0.432,0.159,0.55,0.563,0.522     c0.379-0.026,0.761-0.009,1.141-0.005c1.335,0.013,1.426-0.062,1.437-1.229c0.003-0.306,0.125-0.388,0.416-0.386     c0.284,0.001,0.339,0.136,0.338,0.37c-0.005,1.089-0.004,2.178,0,3.268c0.001,0.232-0.056,0.369-0.339,0.373     c-0.302,0.003-0.377-0.115-0.418-0.398c-0.177-1.212-0.19-1.21-1.416-1.21c-1.713,0-1.713,0-1.713,1.694     c0,0.86,0.016,1.721-0.005,2.58c-0.012,0.515,0.194,0.717,0.728,0.699c0.906-0.029,1.817-0.051,2.721,0.005     c0.817,0.05,1.271-0.281,1.462-1.031c0.049-0.193,0.132-0.381,0.169-0.576c0.061-0.32,0.293-0.308,0.532-0.289     c0.34,0.026,0.235,0.272,0.202,0.448c-0.113,0.59-0.26,1.173-0.367,1.764c-0.081,0.446-0.402,0.407-0.729,0.405     C31.089,93.632,29.889,93.635,28.689,93.635z" fill="#EFF0F4" fill-rule="evenodd"/>
					<path clip-rule="evenodd" d="M53.6,87.667c-0.014,1.105,0.193,2.168,0.746,3.14     c1.635,2.876,5.47,3.056,7.388,0.353c0.101-0.141,0.207-0.28,0.283-0.434c0.133-0.266,0.259-0.385,0.601-0.231     c0.405,0.182,0.225,0.388,0.112,0.61c-0.883,1.759-3.019,2.892-5.062,2.782c-2.275-0.123-4.146-0.938-5.083-3.05     c-1.031-2.326-1.067-4.717,0.475-6.87c1.49-2.082,3.761-2.433,6.169-2.294c0.087,0.005,0.172,0.031,0.259,0.042     c2.445,0.31,2.64,0.517,2.815,2.873c0.019,0.25-0.006,0.389-0.265,0.427c-0.204,0.029-0.42,0.062-0.494-0.21     c-0.068-0.248-0.135-0.497-0.202-0.745c-0.273-1.007-0.961-1.511-2.003-1.629c-3.355-0.384-5.607,1.496-5.739,4.807     C53.595,87.381,53.6,87.524,53.6,87.667z" fill="#EFF0F4" fill-rule="evenodd"/>
					<path clip-rule="evenodd" d="M47.995,87.764c0-1.375-0.043-2.753,0.017-4.126     c0.036-0.814-0.259-1.178-1.083-1.156c-0.217,0.005-0.503,0.069-0.508-0.294c-0.005-0.371,0.291-0.295,0.503-0.296     c1.287-0.008,2.575-0.007,3.862-0.002c0.195,0.001,0.438-0.037,0.46,0.258c0.025,0.349-0.237,0.348-0.474,0.334     c-0.942-0.055-1.189,0.444-1.181,1.277c0.027,2.636,0.029,5.272,0,7.908c-0.009,0.835,0.155,1.413,1.169,1.384     c0.207-0.007,0.517-0.011,0.486,0.341c-0.033,0.37-0.348,0.234-0.546,0.236c-1.229,0.013-2.458,0.016-3.687-0.002     c-0.213-0.003-0.578,0.174-0.591-0.27c-0.012-0.368,0.328-0.311,0.513-0.307c0.906,0.017,1.111-0.438,1.075-1.246     C47.951,90.459,47.995,89.11,47.995,87.764z" fill="#EFF0F4" fill-rule="evenodd"/>
					<path clip-rule="evenodd" d="M65.936,93.635c-0.613,0-1.228,0.008-1.841-0.005     c-0.204-0.004-0.501,0.107-0.507-0.275c-0.004-0.306,0.245-0.306,0.43-0.298c1.023,0.04,1.168-0.539,1.156-1.38     c-0.036-2.633-0.033-5.267-0.002-7.9c0.01-0.82-0.179-1.352-1.145-1.296c-0.196,0.012-0.428,0.04-0.439-0.269     c-0.015-0.358,0.246-0.323,0.476-0.323c1.286-0.002,2.572-0.003,3.858,0.001c0.193,0.001,0.422-0.047,0.445,0.263     c0.025,0.36-0.22,0.344-0.457,0.331c-0.932-0.053-1.175,0.401-1.159,1.264c0.047,2.69,0.036,5.382,0.005,8.072     c-0.009,0.742,0.121,1.23,1.019,1.217c0.194-0.003,0.604-0.109,0.583,0.317c-0.024,0.496-0.436,0.256-0.669,0.27     C67.106,93.658,66.521,93.635,65.936,93.635z" fill="#EFF0F4" fill-rule="evenodd"/>
					<path clip-rule="evenodd" d="M85.773,59.323c-1.748,0-3.496,0.007-5.244-0.008     c-0.257-0.002-0.638,0.164-0.729-0.254c-0.109-0.5,0.333-0.322,0.567-0.4c0.32-0.107,0.503-0.287,0.339-0.645     c-0.034-0.077-0.032-0.17-0.059-0.251c-0.716-2.169-0.716-2.169-3.092-2.169c-0.176,0-0.353-0.008-0.527,0.002     c-0.639,0.035-1.542-0.28-1.857,0.12c-0.485,0.615-0.589,1.525-0.824,2.319c-0.11,0.373,0.073,0.629,0.479,0.641     c0.297,0.009,0.438,0.093,0.392,0.398c-0.046,0.297-0.28,0.242-0.473,0.244c-0.645,0.006-1.289,0.003-1.933,0.001     c-0.209-0.001-0.424,0.002-0.439-0.289c-0.011-0.192,0.033-0.313,0.266-0.354c0.552-0.099,0.688-0.551,0.845-0.992     c1.158-3.233,2.323-6.464,3.487-9.695c0.12-0.333,0.136-0.715,0.69-0.715c0.557,0,0.578,0.403,0.708,0.722     c1.297,3.183,2.579,6.371,3.875,9.555c0.191,0.469,0.332,0.99,0.953,1.134c1.182,0.274,1.701-0.114,1.703-1.312     c0.004-2.695-0.005-5.391,0.004-8.086c0.002-0.635-0.08-1.162-0.918-1.139c-0.206,0.006-0.428-0.042-0.434-0.315     c-0.007-0.353,0.266-0.313,0.496-0.313c1.112-0.002,2.226-0.004,3.338,0.002c0.189,0.001,0.434-0.056,0.462,0.251     c0.032,0.34-0.216,0.38-0.454,0.371c-0.776-0.033-0.925,0.438-0.925,1.052c0.002,2.868,0.008,5.735-0.004,8.602     c-0.003,0.546,0.201,0.771,0.779,0.746c0.877-0.037,1.761-0.062,2.634,0.005c0.909,0.068,1.37-0.316,1.539-1.146     c0.039-0.195,0.107-0.386,0.166-0.577c0.097-0.311,0.36-0.246,0.581-0.226c0.352,0.034,0.186,0.258,0.156,0.444     c-0.364,2.278-0.363,2.278-2.684,2.278C88.35,59.323,87.062,59.323,85.773,59.323z M77.339,49.274     c-0.687,1.982-1.299,3.746-1.938,5.59c1.272,0,2.438-0.004,3.604,0.003c0.329,0.002,0.5-0.04,0.343-0.435     C78.694,52.794,78.065,51.146,77.339,49.274z" fill="#EFF0F4" fill-rule="evenodd"/>
					<path clip-rule="evenodd" d="M70.07,56.99c0-2.689,0.006-5.379-0.006-8.068     c-0.003-0.512-0.299-0.771-0.846-0.763c-0.245,0.003-0.568,0.029-0.534-0.377c0.03-0.367,0.325-0.256,0.534-0.258     c0.849-0.01,1.698-0.009,2.547,0c0.183,0.002,0.432-0.083,0.464,0.237c0.033,0.321-0.168,0.406-0.428,0.394     c-0.811-0.04-0.863,0.474-0.861,1.07c0.007,3.125,0.01,6.25-0.009,9.374c-0.002,0.27,0.234,0.695-0.236,0.799     c-0.426,0.094-0.807,0.049-1.135-0.394c-2.253-3.033-4.544-6.039-6.824-9.054c-0.186-0.245-0.381-0.484-0.567-0.72     c-0.272,0.116-0.183,0.315-0.184,0.464c-0.007,2.551-0.005,5.103-0.004,7.655c0,0.718-0.002,1.438,1.07,1.345     c0.256-0.022,0.265,0.167,0.253,0.348c-0.014,0.215-0.145,0.284-0.351,0.283c-0.938-0.006-1.874-0.004-2.811-0.004     c-0.247,0-0.377-0.104-0.373-0.36c0.004-0.244,0.167-0.28,0.352-0.269c0.92,0.058,1.041-0.509,1.039-1.22     c-0.01-2.724-0.011-5.447,0-8.17c0.003-0.685-0.124-1.209-0.996-1.157c-0.213,0.013-0.405-0.033-0.411-0.318     c-0.007-0.376,0.269-0.292,0.486-0.307c0.088-0.006,0.179,0.013,0.264-0.003c1.631-0.308,2.647,0.349,3.558,1.714     c1.66,2.49,3.547,4.835,5.341,7.239c0.148,0.199,0.311,0.389,0.466,0.582C69.936,57.032,70.003,57.011,70.07,56.99z" fill="#EFF0F4" fill-rule="evenodd"/>
					<path clip-rule="evenodd" d="M46.892,53.415c0.026-2.201,0.583-4.207,2.711-5.315     c2.288-1.191,4.694-1.183,6.958,0.077c2.138,1.19,2.627,3.277,2.583,5.476c-0.037,1.875-0.529,3.627-2.218,4.815     c-2.572,1.811-7.09,1.311-8.863-1.002C47.145,56.27,46.882,54.876,46.892,53.415z M57.452,53.355     c0.09-0.627-0.057-1.277-0.187-1.92c-0.426-2.107-1.954-3.371-4.092-3.426c-2.265-0.06-3.783,1.037-4.37,3.181     c-0.394,1.437-0.401,2.882-0.007,4.322c0.594,2.171,2.123,3.348,4.285,3.31c2.142-0.037,3.692-1.31,4.173-3.468     C57.397,54.714,57.528,54.062,57.452,53.355z" fill="#EFF0F4" fill-rule="evenodd"/>
					<path clip-rule="evenodd" d="M18.236,57.337c0-1.46,0-2.678,0-3.895     c0-1.348,0.009-2.694-0.004-4.042c-0.006-0.653-0.042-1.308-1.002-1.253c-0.219,0.013-0.401-0.073-0.39-0.348     c0.013-0.298,0.23-0.278,0.435-0.279c0.907-0.001,1.814-0.002,2.722,0.001c0.167,0,0.366-0.028,0.387,0.227     c0.02,0.238-0.062,0.406-0.329,0.393c-1.09-0.057-1.023,0.717-1.026,1.399c-0.012,2.952,0.005,5.904-0.019,8.856     c-0.003,0.338,0.284,0.846-0.288,1.008c-0.515,0.147-0.838-0.143-1.146-0.556c-2.259-3.028-4.545-6.038-6.823-9.053     c-0.147-0.195-0.301-0.386-0.453-0.579c-0.232,0.183-0.159,0.367-0.16,0.522c-0.006,2.608,0.001,5.217-0.009,7.825     c-0.003,0.645,0.102,1.162,0.932,1.124c0.22-0.01,0.412,0.004,0.398,0.304c-0.011,0.271-0.175,0.33-0.406,0.329     c-0.937-0.002-1.873-0.002-2.81-0.002c-0.201,0-0.322-0.072-0.339-0.293c-0.021-0.271,0.107-0.358,0.36-0.338     c0.863,0.069,1.015-0.439,1.012-1.137c-0.013-2.78-0.01-5.561-0.002-8.341c0.002-0.615-0.104-1.095-0.896-1.062     c-0.227,0.01-0.487,0.001-0.471-0.35c0.018-0.377,0.306-0.252,0.513-0.28c0.028-0.004,0.058,0,0.087-0.001     c2.313-0.073,2.308-0.07,3.674,1.771c1.787,2.409,3.583,4.811,5.377,7.214C17.724,56.723,17.904,56.929,18.236,57.337z" fill="#EFF0F4" fill-rule="evenodd"/>
					<path clip-rule="evenodd" d="M25.563,55.597c-0.059,0-0.117,0-0.176,0     c-2.264,0-2.265,0-2.838,2.143c-0.13,0.486-0.204,0.948,0.543,0.948c0.243,0,0.285,0.133,0.283,0.328     c-0.002,0.219-0.118,0.304-0.326,0.304c-0.761-0.001-1.521,0.002-2.283-0.003c-0.211-0.002-0.308-0.134-0.316-0.332     c-0.007-0.165,0.063-0.274,0.24-0.293c0.665-0.071,0.781-0.602,0.956-1.087c1.154-3.203,2.31-6.405,3.463-9.608     c0.122-0.339,0.131-0.715,0.686-0.72c0.559-0.005,0.585,0.405,0.714,0.72c1.288,3.154,2.561,6.315,3.84,9.474     c0.213,0.526,0.356,1.117,1.07,1.229c0.196,0.03,0.196,0.173,0.195,0.319c-0.001,0.223-0.139,0.3-0.337,0.3     c-0.995,0.002-1.99,0.002-2.985-0.001c-0.202-0.001-0.321-0.093-0.33-0.31c-0.008-0.217,0.086-0.311,0.303-0.317     c0.761-0.025,0.646-0.479,0.489-0.96C28.057,55.597,28.058,55.597,25.563,55.597z M23.556,54.829c1.418,0,2.695,0,4.083,0     c-0.712-1.817-1.397-3.567-2.174-5.551C24.774,51.288,24.174,53.034,23.556,54.829z" fill="#EFF0F4" fill-rule="evenodd"/>
					<path clip-rule="evenodd" d="M37.126,53.312c0,1.403,0.011,2.808-0.004,4.211     c-0.008,0.743,0.208,1.238,1.091,1.169c0.232-0.018,0.492-0.031,0.487,0.32c-0.004,0.354-0.267,0.311-0.498,0.311     c-1.229,0.001-2.458,0.001-3.686-0.001c-0.231,0-0.504,0.037-0.523-0.298c-0.019-0.336,0.24-0.351,0.482-0.332     c0.803,0.062,1.07-0.312,1.066-1.074c-0.017-2.922,0.003-5.844,0.024-8.766c0.003-0.396-0.109-0.588-0.542-0.549     c-0.261,0.024-0.526,0.002-0.789,0.004c-1.759,0.014-1.851-0.043-2.105,1.552c-0.05,0.315-0.225,0.446-0.545,0.397     c-0.414-0.063-0.191-0.338-0.172-0.529c0.037-0.37,0.154-0.738,0.143-1.104c-0.025-0.924,0.379-1.161,1.313-1.131     c2.455,0.078,4.914,0.05,7.371,0.011c0.614-0.01,0.826,0.205,0.866,0.755c0.038,0.512,0.139,1.02,0.188,1.532     c0.016,0.168,0.157,0.431-0.187,0.463c-0.232,0.021-0.406,0.015-0.519-0.298c-0.597-1.656-0.615-1.599-2.383-1.669     c-0.882-0.035-1.161,0.189-1.104,1.073C37.189,50.672,37.126,51.994,37.126,53.312z" fill="#EFF0F4" fill-rule="evenodd"/>
					<path clip-rule="evenodd" d="M43.792,59.322c-0.614,0-1.229,0.003-1.843-0.001     c-0.23-0.001-0.486,0.034-0.509-0.312c-0.025-0.372,0.243-0.335,0.467-0.316c0.922,0.074,1.152-0.443,1.15-1.217     c-0.01-2.722-0.012-5.443-0.001-8.165c0.003-0.749-0.229-1.223-1.104-1.162c-0.216,0.015-0.496,0.022-0.505-0.322     c-0.01-0.368,0.271-0.305,0.492-0.306c1.258-0.004,2.516-0.006,3.774,0.001c0.208,0.001,0.495-0.094,0.507,0.282     c0.013,0.356-0.251,0.351-0.476,0.335c-0.975-0.064-1.146,0.458-1.135,1.287c0.039,2.721,0.033,5.443,0.003,8.164     c-0.008,0.767,0.272,1.125,1.062,1.104c0.226-0.006,0.571-0.133,0.547,0.317c-0.023,0.425-0.354,0.3-0.586,0.305     C45.021,59.333,44.407,59.323,43.792,59.322z" fill="#EFF0F4" fill-rule="evenodd"/>
					<path clip-rule="evenodd" d="M56.498,71.154c0.934,1.447,1.805,2.801,2.681,4.151     c0.258,0.396,0.571,0.739,1.094,0.768c0.253,0.015,0.377,0.099,0.359,0.359c-0.019,0.303-0.242,0.271-0.442,0.273     c-0.527,0.004-1.056-0.021-1.581,0.008c-0.419,0.022-0.544-0.269-0.707-0.534c-0.848-1.371-1.729-2.724-2.521-4.125     c-0.352-0.621-0.781-0.825-1.466-0.771c-0.373,0.029-0.515,0.124-0.509,0.498c0.018,1.147,0.014,2.295,0.007,3.441     c-0.003,0.555,0.221,0.874,0.826,0.859c0.248-0.005,0.489,0.019,0.447,0.36c-0.035,0.284-0.262,0.262-0.464,0.262     c-2.255,0.002-4.51,0.001-6.765,0.002c-0.213,0-0.428-0.004-0.459-0.276c-0.03-0.268,0.142-0.345,0.377-0.356     c0.636-0.032,0.605-0.402,0.44-0.84c-0.021-0.053-0.027-0.111-0.046-0.166c-0.719-2.088-0.719-2.088-2.966-2.088     c-0.117,0-0.234,0-0.352,0c-2.382,0-2.479,0.081-2.941,2.382c-0.081,0.403-0.021,0.691,0.472,0.713     c0.223,0.011,0.414,0.043,0.404,0.324c-0.011,0.355-0.285,0.305-0.509,0.305c-1.23,0.005-2.46-0.015-3.69,0.012     c-0.448,0.01-0.602-0.264-0.785-0.562c-0.844-1.372-1.74-2.717-2.519-4.124c-0.359-0.648-0.807-0.791-1.475-0.743     c-0.376,0.027-0.512,0.145-0.507,0.512c0.016,1.118-0.01,2.237,0.014,3.355c0.011,0.524,0.177,0.969,0.863,0.936     c0.235-0.012,0.501-0.009,0.466,0.342c-0.035,0.347-0.321,0.272-0.538,0.273c-1.054,0.007-2.108,0.006-3.163,0     c-0.221-0.001-0.501,0.062-0.522-0.291c-0.02-0.354,0.251-0.332,0.48-0.33c0.609,0.005,0.818-0.326,0.817-0.873     c-0.004-2.924-0.007-5.849,0.001-8.772c0.001-0.603-0.237-0.924-0.884-0.878c-0.224,0.016-0.406-0.02-0.419-0.302     c-0.015-0.334,0.196-0.362,0.455-0.354c1.841,0.057,3.69-0.136,5.525,0.12c1.86,0.261,2.935,1.174,3.054,2.562     c0.147,1.718-0.659,2.8-2.536,3.403c-0.139,0.045-0.276,0.093-0.5,0.168c0.951,1.458,1.846,2.924,2.84,4.322     c0.666,0.937,1.362,0.8,1.754-0.283c1.181-3.257,2.34-6.521,3.518-9.779c0.114-0.315,0.097-0.725,0.676-0.724     c0.547,0.001,0.591,0.358,0.725,0.688c1.291,3.187,2.576,6.376,3.867,9.562c0.172,0.424,0.316,0.891,0.787,1.092     c0.916,0.391,1.648-0.07,1.654-1.063c0.017-2.753,0.006-5.507,0.007-8.26c0-0.663-0.104-1.232-0.999-1.153     c-0.24,0.021-0.386-0.069-0.386-0.338c0.001-0.287,0.188-0.32,0.408-0.314c2.017,0.055,4.043-0.165,6.049,0.173     c1.495,0.252,2.547,1.312,2.646,2.594c0.114,1.478-0.66,2.629-2.147,3.183C57.143,70.955,56.862,71.035,56.498,71.154z      M32.907,68.227c0,0.114,0,0.229,0,0.343c0,2.267,0.106,2.336,2.449,1.862c1.079-0.219,1.821-0.767,2.028-1.852     c0.169-0.888,0.015-1.711-0.75-2.324c-0.575-0.462-3.004-0.883-3.438-0.494c-0.588,0.525-0.188,1.295-0.284,1.95     C32.886,67.88,32.907,68.055,32.907,68.227z M53.411,68.403c0.144,0.589-0.402,1.765,0.208,2.057     c0.843,0.404,2.005,0.16,2.963-0.259c0.739-0.323,1.179-0.896,1.276-1.708c0.214-1.792-0.701-2.768-2.728-2.792     c-2.012-0.022-1.686-0.22-1.719,1.578C53.406,67.594,53.411,67.908,53.411,68.403z M44.506,66.678     c-0.641,1.838-1.213,3.478-1.784,5.116c-0.154,0.441,0.122,0.46,0.455,0.457c0.934-0.009,1.87-0.037,2.801,0.009     c0.665,0.032,0.634-0.206,0.438-0.69C45.785,70.01,45.189,68.436,44.506,66.678z" fill="#EFF0F4" fill-rule="evenodd"/>
					<path clip-rule="evenodd" d="M26.75,70.465c0.333,0.098,0.628,0.17,0.914,0.271     c1.589,0.562,2.224,1.543,2.054,3.158c-0.149,1.418-1.196,2.482-2.751,2.689c-2.037,0.272-4.09,0.085-6.136,0.117     c-1.511,0.024-3.023,0.018-4.534-0.003c-0.275-0.004-0.74,0.21-0.788-0.267c-0.054-0.536,0.451-0.335,0.71-0.342     c0.643-0.018,0.886-0.336,0.886-0.919c-0.001-2.896-0.009-5.79,0.006-8.686c0.004-0.79-0.435-0.976-1.124-0.928     c-0.228,0.017-0.486,0.044-0.501-0.31c-0.014-0.352,0.228-0.347,0.468-0.342c3.444,0.073,6.896-0.181,10.333,0.125     c1.751,0.155,2.672,1.002,2.852,2.304c0.174,1.263-0.568,2.266-2.167,2.935C26.899,70.299,26.849,70.375,26.75,70.465z      M21.79,70.827c0-1.434-0.003-2.867,0.002-4.301c0.001-0.323,0.026-0.725-0.308-0.834c-0.779-0.253-1.626-0.295-2.381-0.011     c-0.576,0.217-0.418,0.888-0.422,1.379c-0.02,2.466-0.013,4.932-0.008,7.397c0.004,1.506,0.259,1.745,1.771,1.697     c0.115-0.004,0.229-0.065,0.342-0.061c0.758,0.031,1.03-0.329,1.013-1.054C21.766,73.637,21.79,72.231,21.79,70.827z      M23.377,73.235c0,0.172,0,0.344,0,0.515c0,2.188,0,2.188,2.192,2.169c1.724-0.015,2.688-1.057,2.545-2.753     c-0.14-1.67-1.352-2.417-4.115-2.213c-1.362,0.1-0.288,1.317-0.616,1.943C23.336,72.986,23.377,73.121,23.377,73.235z      M24.777,65.691c-1.646-0.002-1.384-0.049-1.398,1.387c-0.006,0.543-0.001,1.085-0.001,1.628c0,1.656-0.003,1.632,1.751,1.415     c1.098-0.136,1.986-0.508,2.288-1.645C27.887,66.709,26.917,65.699,24.777,65.691z" fill="#EFF0F4" fill-rule="evenodd"/>
					<path clip-rule="evenodd" d="M85.777,70.914c-0.024,2.239-0.601,4.263-2.832,5.303     c-2.447,1.141-4.949,1.1-7.25-0.415c-1.624-1.068-2.08-2.789-2.149-4.582c-0.098-2.536,0.67-4.841,3.108-5.948     C81.302,63.161,85.769,65.931,85.777,70.914z M75.203,70.832c-0.049,0.583,0.046,1.292,0.206,1.992     c0.471,2.061,2.036,3.349,4.142,3.419c1.959,0.065,3.637-1.09,4.22-2.979c0.455-1.476,0.5-2.987,0.125-4.489     c-0.574-2.3-2.104-3.434-4.487-3.368c-2.125,0.06-3.575,1.354-4.05,3.581C75.238,69.555,75.207,70.121,75.203,70.832z" fill="#EFF0F4" fill-rule="evenodd"/>
					<path clip-rule="evenodd" d="M89.941,64.903c1.024,0,2.051,0.027,3.074-0.012     c0.47-0.019,0.688,0.122,0.762,0.571c0.088,0.535,0.219,1.064,0.333,1.596c0.039,0.188,0.17,0.412-0.176,0.443     c-0.233,0.02-0.537,0.045-0.563-0.259c-0.146-1.705-1.368-1.594-2.61-1.562c-1.672,0.042-1.673,0.011-1.673,1.648     c0,0.832,0.019,1.664-0.008,2.495c-0.013,0.417,0.14,0.569,0.558,0.535c0.32-0.025,0.646-0.032,0.966,0.001     c0.837,0.087,1.291-0.224,1.271-1.089c-0.006-0.253-0.049-0.528,0.365-0.542c0.419-0.014,0.381,0.255,0.381,0.514     c0.001,1.004,0.003,2.008-0.002,3.012c-0.001,0.217,0.062,0.473-0.31,0.494c-0.372,0.021-0.409-0.177-0.443-0.474     c-0.135-1.189-0.146-1.188-1.384-1.188c-0.264,0-0.531,0.028-0.79-0.006c-0.527-0.068-0.627,0.173-0.614,0.636     c0.03,1.117,0.036,2.237,0,3.354c-0.021,0.688,0.237,1.023,0.955,1.018c0.234-0.002,0.599-0.097,0.573,0.321     c-0.022,0.391-0.367,0.292-0.61,0.294c-1.055,0.008-2.108,0.009-3.163-0.001c-0.241-0.002-0.583,0.111-0.637-0.266     c-0.059-0.415,0.302-0.349,0.542-0.359c0.589-0.024,0.735-0.408,0.736-0.874c0.009-2.925,0.007-5.851,0.003-8.776     c-0.001-0.526-0.195-0.896-0.821-0.866c-0.25,0.011-0.485-0.009-0.473-0.346c0.014-0.343,0.272-0.312,0.507-0.312     C87.774,64.903,88.857,64.903,89.941,64.903z" fill="#EFF0F4" fill-rule="evenodd"/>
					<path clip-rule="evenodd" d="M65.732,70.667c0.919-1.508,1.768-2.873,2.584-4.256     c0.205-0.347,0.554-0.832-0.309-0.855c-0.229-0.006-0.285-0.165-0.276-0.355c0.011-0.21,0.138-0.296,0.346-0.296     c0.731,0.003,1.463,0.002,2.194,0.003c0.165,0.001,0.284,0.076,0.305,0.241c0.022,0.177,0.011,0.383-0.216,0.4     c-0.613,0.046-0.778,0.547-1.037,0.944c-0.501,0.772-0.906,1.617-1.487,2.325c-1.475,1.796-1.97,3.81-1.734,6.071     c0.075,0.724,0.167,1.249,1.064,1.199c0.23-0.013,0.502-0.018,0.471,0.336c-0.031,0.349-0.315,0.278-0.533,0.279     c-1.171,0.007-2.341,0.006-3.512,0c-0.22-0.001-0.501,0.063-0.527-0.284c-0.027-0.354,0.24-0.341,0.473-0.333     c0.768,0.026,0.931-0.365,1.002-1.065c0.238-2.348-0.224-4.449-1.803-6.3c-0.594-0.696-0.999-1.544-1.513-2.308     c-0.251-0.372-0.449-0.826-1.015-0.857c-0.237-0.013-0.258-0.186-0.257-0.369c0.001-0.23,0.153-0.281,0.346-0.282     c1.054-0.001,2.107,0,3.16-0.001c0.199,0,0.331,0.055,0.34,0.283c0.009,0.241-0.06,0.382-0.338,0.375     c-0.737-0.019-0.685,0.358-0.402,0.815C63.917,67.767,64.786,69.15,65.732,70.667z" fill="#EFF0F4" fill-rule="evenodd"/>
					<path clip-rule="evenodd" d="M10.84,76.707c-1.2,0-2.4,0.004-3.6-0.003     C7,76.702,6.672,76.802,6.68,76.375c0.006-0.373,0.305-0.286,0.512-0.29c0.56-0.009,0.761-0.298,0.781-0.813     c0.119-2.948,0.089-5.896,0.016-8.845c-0.015-0.593-0.253-0.924-0.899-0.865c-0.292,0.026-0.435-0.08-0.413-0.388     c0.022-0.307,0.243-0.269,0.441-0.269c1.141-0.002,2.282,0.003,3.423-0.005c0.242-0.001,0.393,0.05,0.395,0.323     c0.002,0.262-0.122,0.365-0.376,0.337c-0.846-0.097-0.956,0.417-0.954,1.065c0.008,2.837,0.012,5.675-0.005,8.512     c-0.004,0.571,0.16,0.831,0.8,0.794c0.875-0.051,1.76-0.069,2.632,0.003c0.884,0.074,1.293-0.339,1.494-1.095     c0.059-0.222,0.129-0.439,0.195-0.658c0.082-0.272,0.311-0.213,0.506-0.207c0.337,0.011,0.235,0.25,0.223,0.438     c-0.004,0.057-0.023,0.112-0.034,0.169c-0.424,2.126-0.424,2.126-2.644,2.126C12.127,76.707,11.483,76.707,10.84,76.707z" fill="#EFF0F4" fill-rule="evenodd"/>
					<path clip-rule="evenodd" d="M54.131,22.564c0.279,0.135,0.519,0.308,0.666,0.672     c-0.446,0.007-0.526-0.38-0.752-0.567C54.044,22.668,54.094,22.609,54.131,22.564z" fill="#22407A" fill-rule="evenodd"/>
					<path clip-rule="evenodd" d="M45.77,23.827c0.122-0.136,0.245-0.272,0.395-0.44     c0.1,0.313-0.103,0.436-0.245,0.585C45.869,23.923,45.819,23.875,45.77,23.827z" fill="#22407A" fill-rule="evenodd"/>
					<path clip-rule="evenodd" d="M45.479,22.679c0.089-0.114,0.192-0.347,0.327-0.223     c0.145,0.135-0.092,0.26-0.196,0.371C45.565,22.778,45.522,22.728,45.479,22.679z" fill="#22407A" fill-rule="evenodd"/>
					<path clip-rule="evenodd" d="M54.002,24.199c-0.056-0.079-0.111-0.157-0.167-0.235     c0.139-0.074,0.255-0.041,0.354,0.072C54.127,24.09,54.064,24.144,54.002,24.199z" fill="#22407A" fill-rule="evenodd"/>
					<path clip-rule="evenodd" d="M45.609,22.827c-0.042,0.05-0.084,0.099-0.126,0.148     c-0.067-0.048-0.135-0.096-0.203-0.144c0.066-0.051,0.132-0.102,0.198-0.153C45.522,22.728,45.565,22.778,45.609,22.827z" fill="#22407A" fill-rule="evenodd"/>
					<path clip-rule="evenodd" d="M36.773,87.742c0-1.375,0.038-2.752-0.015-4.125     c-0.031-0.805,0.265-1.083,1.071-1.009c0.87,0.081,1.746-0.028,2.623,0.114c1.87,0.302,2.959,1.396,3.417,3.13     c0.319,1.208,0.324,2.441,0.026,3.657c-0.487,1.987-2,3.106-4.528,3.389c-2.594,0.289-2.594,0.289-2.594-2.233     C36.773,89.691,36.773,88.717,36.773,87.742z" fill="#22407A" fill-rule="evenodd"/>
					<path clip-rule="evenodd" d="M77.339,49.274c0.727,1.873,1.355,3.52,2.009,5.159     c0.157,0.395-0.014,0.437-0.343,0.435c-1.166-0.007-2.331-0.003-3.604-0.003C76.04,53.02,76.652,51.256,77.339,49.274z" fill="#22407A" fill-rule="evenodd"/>
					<path clip-rule="evenodd" d="M57.452,53.355c0.076,0.706-0.055,1.358-0.197,1.999     c-0.48,2.158-2.031,3.431-4.173,3.468c-2.163,0.038-3.691-1.139-4.285-3.31c-0.394-1.44-0.386-2.886,0.007-4.322     c0.587-2.145,2.104-3.241,4.37-3.181c2.138,0.056,3.666,1.319,4.092,3.426C57.396,52.078,57.542,52.729,57.452,53.355z" fill="#22407A" fill-rule="evenodd"/>
					<path clip-rule="evenodd" d="M23.556,54.829c0.618-1.795,1.218-3.541,1.909-5.551     c0.776,1.983,1.462,3.733,2.174,5.551C26.251,54.829,24.975,54.829,23.556,54.829z" fill="#22407A" fill-rule="evenodd"/>
					<path clip-rule="evenodd" d="M32.907,68.227c0-0.172-0.021-0.347,0.003-0.515     c0.096-0.655-0.304-1.425,0.284-1.95c0.434-0.389,2.864,0.032,3.438,0.494c0.765,0.613,0.919,1.437,0.75,2.324     c-0.207,1.085-0.949,1.633-2.028,1.852c-2.342,0.474-2.449,0.404-2.449-1.862C32.907,68.455,32.907,68.341,32.907,68.227z" fill="#22407A" fill-rule="evenodd"/>
					<path clip-rule="evenodd" d="M53.411,68.403c0-0.495-0.005-0.81,0.001-1.124     c0.033-1.798-0.293-1.601,1.719-1.578c2.026,0.024,2.941,1,2.728,2.792c-0.098,0.812-0.537,1.385-1.276,1.708     c-0.958,0.419-2.12,0.663-2.963,0.259C53.009,70.168,53.555,68.992,53.411,68.403z" fill="#22407A" fill-rule="evenodd"/>
					<path clip-rule="evenodd" d="M44.506,66.678c0.683,1.758,1.279,3.332,1.91,4.892     c0.196,0.484,0.227,0.723-0.438,0.69c-0.932-0.046-1.867-0.018-2.801-0.009c-0.333,0.003-0.608-0.016-0.455-0.457     C43.293,70.155,43.865,68.516,44.506,66.678z" fill="#22407A" fill-rule="evenodd"/>
					<path clip-rule="evenodd" d="M21.79,70.827c0,1.404-0.023,2.81,0.01,4.214     c0.017,0.725-0.255,1.085-1.013,1.054c-0.113-0.005-0.228,0.057-0.342,0.061c-1.512,0.048-1.768-0.191-1.771-1.697     c-0.005-2.466-0.012-4.932,0.008-7.397c0.004-0.491-0.154-1.162,0.422-1.379c0.755-0.284,1.603-0.242,2.381,0.011     c0.334,0.109,0.31,0.511,0.308,0.834C21.787,67.96,21.79,69.394,21.79,70.827z" fill="#22407A" fill-rule="evenodd"/>
					<path clip-rule="evenodd" d="M23.377,73.235c0-0.114-0.041-0.249,0.006-0.339     c0.328-0.626-0.746-1.844,0.616-1.943c2.763-0.204,3.976,0.543,4.115,2.213c0.142,1.696-0.821,2.738-2.545,2.753     c-2.192,0.019-2.192,0.019-2.192-2.169C23.377,73.579,23.377,73.407,23.377,73.235z" fill="#22407A" fill-rule="evenodd"/>
					<path clip-rule="evenodd" d="M24.777,65.691c2.14,0.008,3.11,1.018,2.64,2.785     c-0.302,1.137-1.19,1.509-2.288,1.645c-1.755,0.217-1.751,0.241-1.751-1.415c0-0.543-0.005-1.085,0.001-1.628     C23.393,65.643,23.131,65.689,24.777,65.691z" fill="#22407A" fill-rule="evenodd"/>
					<path clip-rule="evenodd" d="M75.203,70.832c0.004-0.711,0.035-1.277,0.155-1.844     c0.475-2.228,1.925-3.521,4.05-3.581c2.383-0.065,3.913,1.068,4.487,3.368c0.375,1.502,0.33,3.014-0.125,4.489     c-0.583,1.889-2.261,3.044-4.22,2.979c-2.105-0.07-3.671-1.358-4.142-3.419C75.249,72.124,75.154,71.415,75.203,70.832z" fill="#22407A" fill-rule="evenodd"/>
				</g>
			</g>
		</g>
	</a>
</svg>
