<?xml version="1.0" encoding="UTF-8" standalone="yes"?>
<!DOCTYPE svg PUBLIC "-//W3C//DTD SVG 1.0//EN"
"http://www.w3.org/TR/2001/REC-SVG-20010904/DTD/svg10.dtd">
<svg role="img" aria-label="NN/LM Logo (and link to home page)" CrossriderApp519="true" preserveAspectRatio="xMinYMin meet" version="1.1" viewBox="0 0 110 55" xml:space="preserve" xmlns="http://www.w3.org/2000/svg" xmlns:cc="http://creativecommons.org/ns#" xmlns:dc="http://purl.org/dc/elements/1.1/" xmlns:rdf="http://www.w3.org/1999/02/22-rdf-syntax-ns#" xmlns:xlink="http://www.w3.org/1999/xlink" >
  <title>NNLM Logo</title>
  <desc>The logo for the National Network of Libraries of Medicine</desc>
  <metadata>
    <rdf:RDF>
      <cc:Work rdf:about="">
        <dc:format>image/svg+xml</dc:format>
        <dc:type rdf:resource="http://purl.org/dc/dcmitype/StillImage"/>
        <dc:title/>
      </cc:Work>
    </rdf:RDF>
  </metadata>
    <a xlink:href="/" xlink:title="NN/LM National Home Page" xlink:show="replace" target="_top">
  <g fill="#2A3A89" fill-rule="nonzero" transform="matrix(.01, 0, 0, -.01, 0, 50)">
      <path d="m850.72,1908.9-720.64,0l1094-728-417.87-1177.9,482.57,321.09,385.8,1053.6-823.88,531.2"/>
      <path d="m3039.8,1067.6,5287.2-0.69,0,955.9-4400,0-1000.7-645.27,113.44-309.94"/>
      <path d="M2300.4,973.98,1911.7,723.34,2994.3,2.9375,2996.1,0.10547,8327,0v955.81h-5246.3l232.38-634.87-1012.7,653.05"/>
      <path d="m8326.7,2130.8,0,955.9-6026,0,349.95-955.9,5676,0"/>
      <path d="m2300.3,3086.7-399.92,0-374.68-1056,387.98,0,386.62,1056"/>
      <path d="m2300.5,3087.3-0.21-0.58,0.42,0-0.21,0.58"/>
      <path d="m2237.8,2130.8,1.67,0-0.18,0.51-1.49-0.51"/>
      <path d="m0,4532.5,629.78,0,556.76-942.93-4.56,942.93,399.31,0,0-1265.4-616.08,0-568.18,983.24,4.567-983.24-401.6,0,0,1265.4"/>
      <path d="m1909,4532.5,663.95,0,586.97-942.93-4.81,942.93,420.98,0,0-1265.4-649.51,0-599.01,983.24,4.82-983.24-423.39,0,0,1265.4"/>
      <path d="m3669.3,3269.8,584.67,1266.2,332.21,0-582.02-1266.2-334.86,0"/>
      <path d="m4656.4,4532.5,502.7,0,0-1016.5,802.35,0,0-248.88-1305,0,0,1265.4"/>
      <path d="m6159.6,4532.5,780.06,0,297.16-857.06,282.3,857.06,777.59,1.74,2.46-1267.2-468.03,0,22.3,1062.1-423.47-1062.1-445.74,0-408.61,1070.9,12.38-1070.9-428.4,0,0,1265.4"/>
  </g></a>
</svg>
